SOC_Particle/datasheets/pSpice/Rigol/light.csv

X,CH1,CH2,Start,Increment
Sequence,VOLT,VOLT,-3.00E-5,5.00E-8
0,-5.00E-2,1.08E+0
1,-5.40E-2,1.12E+0
2,-4.80E-2,1.08E+0
3,-5.40E-2,1.12E+0
4,-5.20E-2,1.08E+0
5,-5.40E-2,1.12E+0
6,-5.60E-2,1.08E+0
7,-5.20E-2,1.12E+0
8,-5.60E-2,1.12E+0
9,-5.20E-2,1.08E+0
10,-5.60E-2,1.12E+0
11,-5.20E-2,1.04E+0
12,-5.60E-2,1.04E+0
13,-5.20E-2,1.12E+0
14,-5.20E-2,1.04E+0
15,-5.60E-2,1.12E+0
16,-5.20E-2,1.12E+0
17,-5.60E-2,1.04E+0
18,-5.20E-2,1.04E+0
19,-5.60E-2,1.12E+0
20,-5.20E-2,1.08E+0
21,-5.60E-2,1.12E+0
22,-5.20E-2,1.08E+0
23,-5.60E-2,1.16E+0
24,-5.40E-2,1.08E+0
25,-5.00E-2,1.12E+0
26,-5.40E-2,1.08E+0
27,-5.00E-2,1.16E+0
28,-5.20E-2,1.08E+0
29,-5.40E-2,1.16E+0
30,-5.40E-2,1.16E+0
31,-5.00E-2,1.08E+0
32,-5.40E-2,1.08E+0
33,-4.80E-2,1.16E+0
34,-5.40E-2,1.16E+0
35,-4.80E-2,1.08E+0
36,-4.80E-2,1.16E+0
37,-5.40E-2,1.12E+0
38,-5.40E-2,1.16E+0
39,-4.80E-2,1.12E+0
40,-5.20E-2,1.16E+0
41,-4.60E-2,1.12E+0
42,-4.60E-2,1.12E+0
43,-5.00E-2,1.20E+0
44,-4.80E-2,1.12E+0
45,-4.40E-2,1.20E+0
46,-4.80E-2,1.16E+0
47,-4.40E-2,1.20E+0
48,-4.60E-2,1.16E+0
49,-4.00E-2,1.24E+0
50,-4.60E-2,1.24E+0
51,-4.00E-2,1.16E+0
52,-4.20E-2,1.24E+0
53,-4.00E-2,1.16E+0
54,-4.20E-2,1.24E+0
55,-3.80E-2,1.20E+0
56,-4.20E-2,1.20E+0
57,-3.80E-2,1.28E+0
58,-3.80E-2,1.28E+0
59,-4.20E-2,1.20E+0
60,-4.00E-2,1.28E+0
61,-3.60E-2,1.20E+0
62,-3.60E-2,1.28E+0
63,-4.00E-2,1.20E+0
64,-3.60E-2,1.28E+0
65,-4.00E-2,1.24E+0
66,-3.60E-2,1.28E+0
67,-3.80E-2,1.24E+0
68,-3.60E-2,1.24E+0
69,-3.80E-2,1.28E+0
70,-4.00E-2,1.24E+0
71,-2.80E-2,1.28E+0
72,-4.00E-2,1.28E+0
73,-3.20E-2,1.24E+0
74,-4.00E-2,1.24E+0
75,-3.00E-2,1.28E+0
76,-3.60E-2,1.28E+0
77,-3.00E-2,1.24E+0
78,-3.60E-2,1.28E+0
79,-3.00E-2,1.24E+0
80,-3.20E-2,1.28E+0
81,-3.60E-2,1.24E+0
82,-3.20E-2,1.28E+0
83,-3.60E-2,1.24E+0
84,-3.40E-2,1.24E+0
85,-3.80E-2,1.28E+0
86,-3.20E-2,1.28E+0
87,-4.00E-2,1.24E+0
88,-4.00E-2,1.28E+0
89,-3.00E-2,1.20E+0
90,-3.60E-2,1.28E+0
91,-4.20E-2,1.24E+0
92,-3.60E-2,1.28E+0
93,-4.60E-2,1.20E+0
94,-4.40E-2,1.28E+0
95,-3.60E-2,1.20E+0
96,-3.60E-2,1.20E+0
97,-4.20E-2,1.24E+0
98,-3.80E-2,1.24E+0
99,-4.60E-2,1.16E+0
100,-4.40E-2,1.20E+0
101,-3.80E-2,1.16E+0
102,-4.20E-2,1.20E+0
103,-3.80E-2,1.12E+0
104,-3.80E-2,1.12E+0
105,-4.20E-2,1.20E+0
106,-3.80E-2,1.20E+0
107,-4.60E-2,1.12E+0
108,-4.40E-2,1.20E+0
109,-3.80E-2,1.12E+0
110,-4.20E-2,1.12E+0
111,-3.60E-2,1.20E+0
112,-3.00E-2,1.20E+0
113,-5.60E-2,1.12E+0
114,-1.60E-2,1.12E+0
115,-5.60E-2,1.20E+0
116,-4.80E-2,1.12E+0
117,-2.40E-2,1.20E+0
118,-3.00E-2,1.20E+0
119,-4.80E-2,1.12E+0
120,-3.80E-2,1.20E+0
121,-4.60E-2,1.12E+0
122,-4.20E-2,1.20E+0
123,-3.20E-2,1.12E+0
124,-3.00E-2,1.12E+0
125,-3.80E-2,1.20E+0
126,-3.60E-2,1.20E+0
127,-4.20E-2,1.12E+0
128,-4.40E-2,1.20E+0
129,-3.60E-2,1.12E+0
130,-4.00E-2,1.20E+0
131,-3.20E-2,1.12E+0
132,-3.20E-2,1.12E+0
133,-3.80E-2,1.20E+0
134,-3.60E-2,1.20E+0
135,-4.00E-2,1.12E+0
136,-4.20E-2,1.20E+0
137,-3.60E-2,1.12E+0
138,-4.00E-2,1.20E+0
139,-3.20E-2,1.12E+0
140,-3.80E-2,1.12E+0
141,-3.20E-2,1.20E+0
142,-3.60E-2,1.12E+0
143,-4.00E-2,1.20E+0
144,-3.60E-2,1.20E+0
145,-4.00E-2,1.12E+0
146,-3.60E-2,1.12E+0
147,-3.80E-2,1.20E+0
148,-3.60E-2,1.12E+0
149,-3.80E-2,1.20E+0
150,-3.60E-2,1.12E+0
151,-3.80E-2,1.20E+0
152,-3.60E-2,1.12E+0
153,-4.00E-2,1.16E+0
154,-3.60E-2,1.12E+0
155,-4.00E-2,1.16E+0
156,-3.60E-2,1.12E+0
157,-4.00E-2,1.16E+0
158,-3.60E-2,1.12E+0
159,-3.80E-2,1.16E+0
160,-3.60E-2,1.12E+0
161,-4.00E-2,1.16E+0
162,-3.60E-2,1.12E+0
163,-4.00E-2,1.16E+0
164,-4.00E-2,1.12E+0
165,-3.60E-2,1.16E+0
166,-4.00E-2,1.12E+0
167,-3.60E-2,1.16E+0
168,-3.60E-2,1.08E+0
169,-4.00E-2,1.16E+0
170,-4.00E-2,1.16E+0
171,-3.80E-2,1.08E+0
172,-4.00E-2,1.08E+0
173,-3.60E-2,1.16E+0
174,-4.00E-2,1.16E+0
175,-3.40E-2,1.08E+0
176,-3.20E-2,1.08E+0
177,-3.80E-2,1.16E+0
178,-3.40E-2,1.16E+0
179,-3.80E-2,1.12E+0
180,-3.20E-2,1.12E+0
181,-3.80E-2,1.20E+0
182,-3.20E-2,1.20E+0
183,-3.80E-2,1.12E+0
184,-3.60E-2,1.12E+0
185,-3.20E-2,1.20E+0
186,-3.20E-2,1.16E+0
187,-3.60E-2,1.20E+0
188,-3.20E-2,1.20E+0
189,-3.80E-2,1.16E+0
190,-3.20E-2,1.16E+0
191,-3.80E-2,1.20E+0
192,-3.80E-2,1.20E+0
193,-3.20E-2,1.16E+0
194,-3.20E-2,1.16E+0
195,-3.80E-2,1.20E+0
196,-3.20E-2,1.20E+0
197,-3.80E-2,1.16E+0
198,-3.60E-2,1.16E+0
199,-3.20E-2,1.20E+0
200,-3.20E-2,1.16E+0
201,-3.60E-2,1.20E+0
202,-3.60E-2,1.16E+0
203,-3.20E-2,1.20E+0
204,-3.20E-2,1.16E+0
205,-3.80E-2,1.24E+0
206,-3.20E-2,1.16E+0
207,-3.80E-2,1.24E+0
208,-3.80E-2,1.16E+0
209,-3.40E-2,1.20E+0
210,-3.60E-2,1.24E+0
211,-3.80E-2,1.16E+0
212,-3.60E-2,1.16E+0
213,-4.00E-2,1.24E+0
214,-3.60E-2,1.16E+0
215,-4.00E-2,1.24E+0
216,-3.80E-2,1.16E+0
217,-4.00E-2,1.20E+0
218,-3.80E-2,1.20E+0
219,-4.20E-2,1.16E+0
220,-4.20E-2,1.16E+0
221,-3.80E-2,1.20E+0
222,-4.20E-2,1.16E+0
223,-4.00E-2,1.20E+0
224,-4.60E-2,1.16E+0
225,-4.00E-2,1.20E+0
226,-4.20E-2,1.16E+0
227,-4.80E-2,1.20E+0
228,-5.00E-2,1.12E+0
229,-4.20E-2,1.20E+0
230,-4.40E-2,1.20E+0
231,-5.20E-2,1.12E+0
232,-5.20E-2,1.12E+0
233,-4.40E-2,1.16E+0
234,-4.60E-2,1.16E+0
235,-5.40E-2,1.08E+0
236,-5.00E-2,1.08E+0
237,-4.60E-2,1.16E+0
238,-4.80E-2,1.16E+0
239,-5.00E-2,1.08E+0
240,-5.40E-2,1.08E+0
241,-4.80E-2,1.16E+0
242,-4.80E-2,1.08E+0
243,-5.40E-2,1.16E+0
244,-5.40E-2,1.16E+0
245,-4.80E-2,1.08E+0
246,-5.40E-2,1.08E+0
247,-4.80E-2,1.16E+0
248,-5.40E-2,1.08E+0
249,-4.80E-2,1.16E+0
250,-5.40E-2,1.08E+0
251,-5.00E-2,1.16E+0
252,-5.40E-2,1.08E+0
253,-4.80E-2,1.16E+0
254,-5.00E-2,1.08E+0
255,-5.40E-2,1.16E+0
256,-5.40E-2,1.08E+0
257,-5.20E-2,1.16E+0
258,-5.40E-2,1.08E+0
259,-5.20E-2,1.16E+0
260,-5.20E-2,1.08E+0
261,-5.40E-2,1.16E+0
262,-5.00E-2,1.08E+0
263,-5.40E-2,1.16E+0
264,-5.40E-2,1.08E+0
265,-5.20E-2,1.16E+0
266,-5.20E-2,1.16E+0
267,-5.40E-2,1.08E+0
268,-5.20E-2,1.16E+0
269,-5.40E-2,1.08E+0
270,-4.80E-2,1.16E+0
271,-5.80E-2,1.12E+0
272,-5.60E-2,1.12E+0
273,-4.60E-2,1.16E+0
274,-5.80E-2,1.16E+0
275,-4.60E-2,1.12E+0
276,-4.20E-2,1.12E+0
277,-5.80E-2,1.16E+0
278,-4.60E-2,1.12E+0
279,-5.80E-2,1.16E+0
280,-5.00E-2,1.12E+0
281,-5.60E-2,1.16E+0
282,-5.00E-2,1.12E+0
283,-4.40E-2,1.16E+0
284,-4.60E-2,1.12E+0
285,-5.20E-2,1.16E+0
286,-5.00E-2,1.12E+0
287,-5.60E-2,1.16E+0
288,-5.60E-2,1.12E+0
289,-5.00E-2,1.16E+0
290,-5.40E-2,1.16E+0
291,-4.60E-2,1.12E+0
292,-4.80E-2,1.12E+0
293,-5.40E-2,1.16E+0
294,-5.40E-2,1.12E+0
295,-5.00E-2,1.16E+0
296,-5.40E-2,1.16E+0
297,-4.60E-2,1.08E+0
298,-4.60E-2,1.16E+0
299,-5.00E-2,1.12E+0
300,-4.60E-2,1.12E+0
301,-5.00E-2,1.16E+0
302,-5.00E-2,1.12E+0
303,-4.60E-2,1.20E+0
304,-4.40E-2,1.12E+0
305,-5.00E-2,1.20E+0
306,-4.80E-2,1.20E+0
307,-4.20E-2,1.12E+0
308,-4.60E-2,1.20E+0
309,-4.00E-2,1.12E+0
310,-4.00E-2,1.16E+0
311,-4.40E-2,1.20E+0
312,-4.20E-2,1.16E+0
313,-3.80E-2,1.24E+0
314,-3.80E-2,1.24E+0
315,-4.20E-2,1.16E+0
316,-4.00E-2,1.20E+0
317,-3.60E-2,1.24E+0
318,-3.60E-2,1.20E+0
319,-4.00E-2,1.28E+0
320,-3.60E-2,1.28E+0
321,-4.00E-2,1.20E+0
322,-3.60E-2,1.28E+0
323,-3.80E-2,1.20E+0
324,-3.60E-2,1.24E+0
325,-3.20E-2,1.28E+0
326,-3.40E-2,1.24E+0
327,-3.20E-2,1.28E+0
328,-3.40E-2,1.28E+0
329,-3.00E-2,1.24E+0
330,-3.40E-2,1.24E+0
331,-3.00E-2,1.28E+0
332,-3.00E-2,1.24E+0
333,-3.40E-2,1.32E+0
334,-3.40E-2,1.24E+0
335,-3.00E-2,1.32E+0
336,-3.00E-2,1.24E+0
337,-3.40E-2,1.32E+0
338,-3.20E-2,1.32E+0
339,-2.80E-2,1.24E+0
340,-3.00E-2,1.24E+0
341,-3.40E-2,1.32E+0
342,-2.80E-2,1.24E+0
343,-3.40E-2,1.32E+0
344,-3.40E-2,1.24E+0
345,-2.80E-2,1.32E+0
346,-3.80E-2,1.24E+0
347,-2.80E-2,1.32E+0
348,-2.80E-2,1.24E+0
349,-3.40E-2,1.28E+0
350,-4.00E-2,1.24E+0
351,-3.00E-2,1.28E+0
352,-3.60E-2,1.28E+0
353,-2.20E-2,1.20E+0
354,-2.20E-2,1.28E+0
355,-4.40E-2,1.20E+0
356,-1.40E-2,1.20E+0
357,-5.80E-2,1.28E+0
358,-5.00E-2,1.20E+0
359,-1.20E-2,1.28E+0
360,-2.20E-2,1.24E+0
361,-4.60E-2,1.20E+0
362,-4.40E-2,1.24E+0
363,-3.00E-2,1.16E+0
364,-4.00E-2,1.16E+0
365,-3.00E-2,1.24E+0
366,-3.60E-2,1.20E+0
367,-3.00E-2,1.16E+0
368,-3.00E-2,1.16E+0
369,-4.20E-2,1.20E+0
370,-3.60E-2,1.20E+0
371,-4.20E-2,1.12E+0
372,-4.00E-2,1.12E+0
373,-3.20E-2,1.20E+0
374,-3.80E-2,1.20E+0
375,-3.20E-2,1.12E+0
376,-3.20E-2,1.12E+0
377,-4.00E-2,1.20E+0
378,-4.00E-2,1.20E+0
379,-3.20E-2,1.12E+0
380,-3.60E-2,1.12E+0
381,-4.00E-2,1.20E+0
382,-4.00E-2,1.12E+0
383,-3.20E-2,1.20E+0
384,-3.80E-2,1.12E+0
385,-3.40E-2,1.20E+0
386,-3.40E-2,1.12E+0
387,-4.20E-2,1.16E+0
388,-3.20E-2,1.12E+0
389,-4.20E-2,1.16E+0
390,-4.00E-2,1.16E+0
391,-3.20E-2,1.12E+0
392,-4.20E-2,1.12E+0
393,-3.00E-2,1.16E+0
394,-4.40E-2,1.16E+0
395,-3.60E-2,1.08E+0
396,-3.60E-2,1.12E+0
397,-4.40E-2,1.16E+0
398,-4.20E-2,1.16E+0
399,-3.60E-2,1.08E+0
400,-4.20E-2,1.16E+0
401,-3.60E-2,1.08E+0
402,-3.60E-2,1.16E+0
403,-4.20E-2,1.08E+0
404,-4.20E-2,1.16E+0
405,-3.60E-2,1.08E+0
406,-4.20E-2,1.16E+0
407,-3.80E-2,1.08E+0
408,-3.80E-2,1.08E+0
409,-4.20E-2,1.16E+0
410,-4.20E-2,1.08E+0
411,-3.80E-2,1.16E+0
412,-4.00E-2,1.08E+0
413,-4.40E-2,1.16E+0
414,-4.60E-2,1.08E+0
415,-4.00E-2,1.12E+0
416,-4.00E-2,1.08E+0
417,-4.20E-2,1.12E+0
418,-4.20E-2,1.08E+0
419,-4.20E-2,1.12E+0
420,-4.00E-2,1.08E+0
421,-4.40E-2,1.12E+0
422,-4.60E-2,1.12E+0
423,-4.00E-2,1.08E+0
424,-4.00E-2,1.12E+0
425,-4.60E-2,1.08E+0
426,-4.60E-2,1.12E+0
427,-4.00E-2,1.08E+0
428,-4.00E-2,1.12E+0
429,-4.60E-2,1.08E+0
430,-4.20E-2,1.08E+0
431,-4.60E-2,1.12E+0
432,-4.00E-2,1.08E+0
433,-4.60E-2,1.12E+0
434,-4.60E-2,1.08E+0
435,-3.80E-2,1.16E+0
436,-4.20E-2,1.08E+0
437,-3.80E-2,1.16E+0
438,-3.80E-2,1.08E+0
439,-4.20E-2,1.16E+0
440,-4.20E-2,1.16E+0
441,-3.80E-2,1.12E+0
442,-4.20E-2,1.12E+0
443,-3.80E-2,1.20E+0
444,-4.20E-2,1.12E+0
445,-3.80E-2,1.20E+0
446,-4.00E-2,1.20E+0
447,-3.80E-2,1.12E+0
448,-3.80E-2,1.20E+0
449,-4.20E-2,1.12E+0
450,-3.80E-2,1.20E+0
451,-4.20E-2,1.12E+0
452,-3.80E-2,1.16E+0
453,-4.20E-2,1.20E+0
454,-3.80E-2,1.16E+0
455,-4.20E-2,1.20E+0
456,-3.80E-2,1.20E+0
457,-4.20E-2,1.16E+0
458,-4.20E-2,1.16E+0
459,-3.80E-2,1.20E+0
460,-3.80E-2,1.16E+0
461,-4.20E-2,1.20E+0
462,-4.20E-2,1.20E+0
463,-3.80E-2,1.16E+0
464,-3.80E-2,1.16E+0
465,-4.20E-2,1.20E+0
466,-4.20E-2,1.16E+0
467,-4.00E-2,1.20E+0
468,-4.20E-2,1.16E+0
469,-4.00E-2,1.20E+0
470,-4.00E-2,1.16E+0
471,-4.60E-2,1.20E+0
472,-4.60E-2,1.20E+0
473,-4.00E-2,1.16E+0
474,-4.40E-2,1.20E+0
475,-4.60E-2,1.16E+0
476,-4.40E-2,1.20E+0
477,-4.80E-2,1.12E+0
478,-4.80E-2,1.12E+0
479,-4.40E-2,1.20E+0
480,-4.60E-2,1.20E+0
481,-5.00E-2,1.12E+0
482,-5.00E-2,1.20E+0
483,-4.60E-2,1.12E+0
484,-4.80E-2,1.12E+0
485,-5.40E-2,1.20E+0
486,-5.00E-2,1.20E+0
487,-5.40E-2,1.12E+0
488,-5.20E-2,1.20E+0
489,-5.60E-2,1.12E+0
490,-5.40E-2,1.12E+0
491,-5.60E-2,1.16E+0
492,-5.40E-2,1.16E+0
493,-5.60E-2,1.08E+0
494,-5.40E-2,1.16E+0
495,-5.80E-2,1.08E+0
496,-5.60E-2,1.08E+0
497,-5.40E-2,1.12E+0
498,-5.40E-2,1.08E+0
499,-5.80E-2,1.12E+0
500,-5.80E-2,1.12E+0
501,-5.40E-2,1.08E+0
502,-5.20E-2,1.08E+0
503,-5.80E-2,1.16E+0
504,-5.80E-2,1.08E+0
505,-5.40E-2,1.16E+0
506,-5.80E-2,1.08E+0
507,-5.40E-2,1.16E+0
508,-5.80E-2,1.08E+0
509,-5.40E-2,1.16E+0
510,-5.80E-2,1.08E+0
511,-5.40E-2,1.16E+0
512,-5.80E-2,1.08E+0
513,-5.40E-2,1.16E+0
514,-5.40E-2,1.08E+0
515,-5.80E-2,1.16E+0
516,-5.40E-2,1.08E+0
517,-5.80E-2,1.16E+0
518,-5.40E-2,1.16E+0
519,-5.80E-2,1.08E+0
520,-5.60E-2,1.08E+0
521,-5.40E-2,1.16E+0
522,-5.60E-2,1.08E+0
523,-5.40E-2,1.16E+0
524,-5.40E-2,1.16E+0
525,-5.60E-2,1.08E+0
526,-5.60E-2,1.12E+0
527,-5.20E-2,1.16E+0
528,-5.20E-2,1.12E+0
529,-5.60E-2,1.16E+0
530,-5.60E-2,1.16E+0
531,-5.20E-2,1.12E+0
532,-5.20E-2,1.16E+0
533,-5.60E-2,1.12E+0
534,-5.20E-2,1.16E+0
535,-5.60E-2,1.12E+0
536,-5.40E-2,1.20E+0
537,-5.00E-2,1.12E+0
538,-5.40E-2,1.12E+0
539,-4.80E-2,1.20E+0
540,-5.00E-2,1.12E+0
541,-5.40E-2,1.20E+0
542,-5.40E-2,1.12E+0
543,-4.80E-2,1.20E+0
544,-4.60E-2,1.12E+0
545,-5.60E-2,1.20E+0
546,-5.60E-2,1.20E+0
547,-4.40E-2,1.12E+0
548,-5.20E-2,1.20E+0
549,-4.40E-2,1.12E+0
550,-5.00E-2,1.20E+0
551,-4.60E-2,1.12E+0
552,-5.00E-2,1.16E+0
553,-4.40E-2,1.20E+0
554,-5.00E-2,1.20E+0
555,-4.40E-2,1.16E+0
556,-5.00E-2,1.20E+0
557,-4.20E-2,1.16E+0
558,-4.80E-2,1.20E+0
559,-4.40E-2,1.16E+0
560,-4.80E-2,1.20E+0
561,-4.20E-2,1.16E+0
562,-4.80E-2,1.16E+0
563,-4.00E-2,1.20E+0
564,-4.60E-2,1.20E+0
565,-4.00E-2,1.16E+0
566,-4.60E-2,1.20E+0
567,-3.80E-2,1.16E+0
568,-3.80E-2,1.16E+0
569,-4.00E-2,1.24E+0
570,-4.00E-2,1.24E+0
571,-3.60E-2,1.16E+0
572,-3.60E-2,1.20E+0
573,-4.00E-2,1.24E+0
574,-3.60E-2,1.20E+0
575,-3.80E-2,1.28E+0
576,-3.60E-2,1.28E+0
577,-3.20E-2,1.20E+0
578,-3.20E-2,1.28E+0
579,-3.80E-2,1.20E+0
580,-3.40E-2,1.24E+0
581,-3.00E-2,1.28E+0
582,-3.40E-2,1.28E+0
583,-3.00E-2,1.24E+0
584,-3.00E-2,1.24E+0
585,-3.40E-2,1.28E+0
586,-3.20E-2,1.24E+0
587,-2.80E-2,1.28E+0
588,-2.80E-2,1.28E+0
589,-3.20E-2,1.24E+0
590,-3.20E-2,1.24E+0
591,-2.80E-2,1.32E+0
592,-2.80E-2,1.24E+0
593,-3.40E-2,1.32E+0
594,-3.20E-2,1.24E+0
595,-2.80E-2,1.28E+0
596,-2.40E-2,1.24E+0
597,-3.40E-2,1.28E+0
598,-4.40E-2,1.24E+0
599,-1.40E-2,1.28E+0
600,-8.00E-3,1.24E+0
601,-4.80E-2,1.28E+0
602,-4.20E-2,1.28E+0
603,-1.80E-2,1.24E+0
604,-2.80E-2,1.28E+0
605,-4.00E-2,1.20E+0
606,-3.60E-2,1.28E+0
607,-2.80E-2,1.20E+0
608,-2.80E-2,1.20E+0
609,-3.20E-2,1.24E+0
610,-3.00E-2,1.24E+0
611,-3.60E-2,1.20E+0
612,-3.20E-2,1.24E+0
613,-3.60E-2,1.20E+0
614,-3.20E-2,1.24E+0
615,-3.80E-2,1.20E+0
616,-3.40E-2,1.24E+0
617,-3.20E-2,1.16E+0
618,-3.20E-2,1.24E+0
619,-3.80E-2,1.16E+0
620,-3.60E-2,1.24E+0
621,-4.20E-2,1.16E+0
622,-4.20E-2,1.24E+0
623,-3.80E-2,1.16E+0
624,-3.80E-2,1.16E+0
625,-4.00E-2,1.20E+0
626,-4.00E-2,1.20E+0
627,-3.80E-2,1.12E+0
628,-3.80E-2,1.12E+0
629,-4.20E-2,1.20E+0
630,-3.80E-2,1.16E+0
631,-4.60E-2,1.12E+0
632,-4.20E-2,1.16E+0
633,-3.80E-2,1.08E+0
634,-4.20E-2,1.16E+0
635,-3.80E-2,1.08E+0
636,-4.20E-2,1.08E+0
637,-3.80E-2,1.16E+0
638,-4.60E-2,1.16E+0
639,-4.00E-2,1.08E+0
640,-4.00E-2,1.16E+0
641,-4.40E-2,1.08E+0
642,-4.20E-2,1.16E+0
643,-4.00E-2,1.08E+0
644,-4.00E-2,1.08E+0
645,-4.40E-2,1.16E+0
646,-4.60E-2,1.16E+0
647,-4.00E-2,1.08E+0
648,-4.40E-2,1.08E+0
649,-4.00E-2,1.16E+0
650,-4.40E-2,1.16E+0
651,-4.00E-2,1.08E+0
652,-4.00E-2,1.08E+0
653,-4.60E-2,1.16E+0
654,-4.00E-2,1.08E+0
655,-4.60E-2,1.16E+0
656,-4.60E-2,1.16E+0
657,-4.00E-2,1.08E+0
658,-4.60E-2,1.08E+0
659,-4.00E-2,1.16E+0
660,-4.60E-2,1.08E+0
661,-4.00E-2,1.16E+0
662,-4.00E-2,1.08E+0
663,-4.60E-2,1.16E+0
664,-4.60E-2,1.08E+0
665,-4.00E-2,1.16E+0
666,-4.20E-2,1.16E+0
667,-4.60E-2,1.08E+0
668,-4.60E-2,1.08E+0
669,-4.00E-2,1.16E+0
670,-4.20E-2,1.08E+0
671,-4.60E-2,1.16E+0
672,-4.60E-2,1.08E+0
673,-4.00E-2,1.16E+0
674,-4.80E-2,1.16E+0
675,-4.20E-2,1.08E+0
676,-4.20E-2,1.08E+0
677,-4.60E-2,1.16E+0
678,-4.00E-2,1.16E+0
679,-4.60E-2,1.08E+0
680,-4.60E-2,1.08E+0
681,-4.40E-2,1.16E+0
682,-4.60E-2,1.08E+0
683,-4.40E-2,1.16E+0
684,-4.40E-2,1.08E+0
685,-4.60E-2,1.16E+0
686,-4.40E-2,1.08E+0
687,-4.80E-2,1.16E+0
688,-4.40E-2,1.08E+0
689,-4.80E-2,1.16E+0
690,-4.40E-2,1.08E+0
691,-4.80E-2,1.16E+0
692,-4.40E-2,1.08E+0
693,-4.80E-2,1.16E+0
694,-5.00E-2,1.08E+0
695,-4.40E-2,1.12E+0
696,-5.00E-2,1.08E+0
697,-3.80E-2,1.12E+0
698,-5.00E-2,1.08E+0
699,-4.00E-2,1.12E+0
700,-3.80E-2,1.08E+0
701,-4.80E-2,1.12E+0
702,-4.00E-2,1.08E+0
703,-4.60E-2,1.16E+0
704,-5.00E-2,1.12E+0
705,-3.80E-2,1.16E+0
706,-3.80E-2,1.12E+0
707,-4.80E-2,1.20E+0
708,-4.60E-2,1.12E+0
709,-3.80E-2,1.20E+0
710,-4.80E-2,1.12E+0
711,-3.80E-2,1.20E+0
712,-4.00E-2,1.20E+0
713,-4.80E-2,1.12E+0
714,-4.60E-2,1.20E+0
715,-4.00E-2,1.16E+0
716,-4.60E-2,1.16E+0
717,-4.00E-2,1.20E+0
718,-4.00E-2,1.20E+0
719,-4.80E-2,1.16E+0
720,-4.60E-2,1.20E+0
721,-4.00E-2,1.16E+0
722,-4.60E-2,1.16E+0
723,-4.00E-2,1.20E+0
724,-4.20E-2,1.20E+0
725,-4.80E-2,1.16E+0
726,-4.60E-2,1.16E+0
727,-5.00E-2,1.20E+0
728,-4.80E-2,1.20E+0
729,-4.40E-2,1.16E+0
730,-4.00E-2,1.16E+0
731,-4.80E-2,1.20E+0
732,-4.60E-2,1.20E+0
733,-5.00E-2,1.16E+0
734,-5.40E-2,1.16E+0
735,-4.80E-2,1.20E+0
736,-5.00E-2,1.16E+0
737,-4.60E-2,1.20E+0
738,-4.60E-2,1.20E+0
739,-5.20E-2,1.12E+0
740,-5.20E-2,1.20E+0
741,-5.60E-2,1.12E+0
742,-5.60E-2,1.20E+0
743,-5.20E-2,1.12E+0
744,-5.20E-2,1.20E+0
745,-5.60E-2,1.12E+0
746,-5.40E-2,1.20E+0
747,-5.80E-2,1.12E+0
748,-6.20E-2,1.20E+0
749,-5.40E-2,1.12E+0
750,-5.60E-2,1.12E+0
751,-6.20E-2,1.16E+0
752,-6.20E-2,1.16E+0
753,-5.40E-2,1.08E+0
754,-5.60E-2,1.08E+0
755,-6.20E-2,1.16E+0
756,-6.20E-2,1.08E+0
757,-5.60E-2,1.16E+0
758,-5.80E-2,1.08E+0
759,-5.40E-2,1.16E+0
760,-5.80E-2,1.16E+0
761,-6.20E-2,1.08E+0
762,-5.20E-2,1.16E+0
763,-6.40E-2,1.08E+0
764,-6.20E-2,1.08E+0
765,-5.40E-2,1.16E+0
766,-5.40E-2,1.16E+0
767,-6.00E-2,1.08E+0
768,-5.40E-2,1.16E+0
769,-5.80E-2,1.08E+0
770,-5.80E-2,1.16E+0
771,-5.40E-2,1.12E+0
772,-5.60E-2,1.12E+0
773,-5.20E-2,1.16E+0
774,-5.40E-2,1.16E+0
775,-5.80E-2,1.12E+0
776,-5.80E-2,1.12E+0
777,-5.40E-2,1.16E+0
778,-5.80E-2,1.16E+0
779,-5.40E-2,1.12E+0
780,-5.80E-2,1.12E+0
781,-5.40E-2,1.16E+0
782,-5.60E-2,1.12E+0
783,-5.40E-2,1.16E+0
784,-5.60E-2,1.16E+0
785,-5.20E-2,1.08E+0
786,-5.20E-2,1.16E+0
787,-5.60E-2,1.08E+0
788,-5.20E-2,1.16E+0
789,-5.40E-2,1.08E+0
790,-5.60E-2,1.12E+0
791,-5.00E-2,1.16E+0
792,-5.40E-2,1.16E+0
793,-5.00E-2,1.12E+0
794,-5.20E-2,1.12E+0
795,-4.80E-2,1.20E+0
796,-5.00E-2,1.12E+0
797,-4.60E-2,1.20E+0
798,-5.00E-2,1.20E+0
799,-4.60E-2,1.12E+0
800,-4.80E-2,1.20E+0
801,-4.60E-2,1.12E+0
802,-4.80E-2,1.16E+0
803,-4.40E-2,1.20E+0
804,-4.40E-2,1.20E+0
805,-4.80E-2,1.16E+0
806,-4.40E-2,1.16E+0
807,-4.80E-2,1.24E+0
808,-4.60E-2,1.16E+0
809,-4.00E-2,1.24E+0
810,-4.40E-2,1.16E+0
811,-4.00E-2,1.24E+0
812,-4.00E-2,1.16E+0
813,-4.60E-2,1.24E+0
814,-4.20E-2,1.24E+0
815,-3.80E-2,1.16E+0
816,-4.20E-2,1.16E+0
817,-3.80E-2,1.24E+0
818,-3.80E-2,1.24E+0
819,-4.20E-2,1.16E+0
820,-4.20E-2,1.16E+0
821,-3.60E-2,1.24E+0
822,-4.00E-2,1.24E+0
823,-3.60E-2,1.20E+0
824,-3.40E-2,1.24E+0
825,-4.00E-2,1.16E+0
826,-4.00E-2,1.24E+0
827,-3.60E-2,1.16E+0
828,-3.80E-2,1.20E+0
829,-3.20E-2,1.24E+0
830,-3.20E-2,1.24E+0
831,-3.60E-2,1.20E+0
832,-3.40E-2,1.24E+0
833,-3.00E-2,1.20E+0
834,-3.00E-2,1.20E+0
835,-3.80E-2,1.28E+0
836,-3.60E-2,1.20E+0
837,-2.80E-2,1.28E+0
838,-3.20E-2,1.20E+0
839,-2.20E-2,1.28E+0
840,-1.60E-2,1.20E+0
841,-4.80E-2,1.28E+0
842,-2.00E-3,1.28E+0
843,-4.40E-2,1.20E+0
844,-4.00E-3,1.28E+0
845,-4.00E-2,1.24E+0
846,-1.40E-2,1.28E+0
847,-3.60E-2,1.24E+0
848,-3.40E-2,1.28E+0
849,-2.20E-2,1.24E+0
850,-2.80E-2,1.28E+0
851,-2.00E-2,1.24E+0
852,-1.80E-2,1.24E+0
853,-2.60E-2,1.28E+0
854,-2.20E-2,1.24E+0
855,-2.80E-2,1.28E+0
856,-2.80E-2,1.28E+0
857,-2.40E-2,1.24E+0
858,-2.80E-2,1.28E+0
859,-2.20E-2,1.20E+0
860,-2.20E-2,1.28E+0
861,-2.60E-2,1.20E+0
862,-2.00E-2,1.28E+0
863,-3.20E-2,1.20E+0
864,-2.40E-2,1.28E+0
865,-3.20E-2,1.20E+0
866,-2.60E-2,1.24E+0
867,-3.20E-2,1.20E+0
868,-2.40E-2,1.24E+0
869,-3.00E-2,1.20E+0
870,-2.40E-2,1.24E+0
871,-3.20E-2,1.16E+0
872,-3.00E-2,1.24E+0
873,-3.40E-2,1.16E+0
874,-3.40E-2,1.16E+0
875,-3.00E-2,1.24E+0
876,-2.80E-2,1.16E+0
877,-4.00E-2,1.20E+0
878,-2.80E-2,1.20E+0
879,-4.00E-2,1.16E+0
880,-3.20E-2,1.20E+0
881,-4.40E-2,1.12E+0
882,-3.60E-2,1.20E+0
883,-4.60E-2,1.12E+0
884,-3.60E-2,1.20E+0
885,-4.60E-2,1.12E+0
886,-3.80E-2,1.16E+0
887,-4.60E-2,1.12E+0
888,-4.20E-2,1.08E+0
889,-3.60E-2,1.16E+0
890,-3.60E-2,1.16E+0
891,-4.40E-2,1.08E+0
892,-4.00E-2,1.08E+0
893,-4.80E-2,1.16E+0
894,-5.00E-2,1.12E+0
895,-3.80E-2,1.08E+0
896,-4.00E-2,1.08E+0
897,-4.60E-2,1.16E+0
898,-4.00E-2,1.08E+0
899,-4.80E-2,1.16E+0
900,-5.00E-2,1.08E+0
901,-4.40E-2,1.16E+0
902,-4.80E-2,1.08E+0
903,-4.40E-2,1.16E+0
904,-4.00E-2,1.08E+0
905,-4.80E-2,1.12E+0
906,-4.40E-2,1.08E+0
907,-4.80E-2,1.12E+0
908,-4.60E-2,1.08E+0
909,-5.00E-2,1.12E+0
910,-4.80E-2,1.12E+0
911,-4.40E-2,1.08E+0
912,-4.80E-2,1.08E+0
913,-4.40E-2,1.12E+0
914,-4.60E-2,1.08E+0
915,-5.00E-2,1.12E+0
916,-4.80E-2,1.08E+0
917,-4.40E-2,1.12E+0
918,-5.00E-2,1.08E+0
919,-4.40E-2,1.12E+0
920,-4.60E-2,1.08E+0
921,-5.00E-2,1.12E+0
922,-5.00E-2,1.08E+0
923,-4.60E-2,1.12E+0
924,-4.60E-2,1.08E+0
925,-5.00E-2,1.16E+0
926,-5.00E-2,1.08E+0
927,-4.60E-2,1.12E+0
928,-5.00E-2,1.08E+0
929,-4.80E-2,1.12E+0
930,-5.00E-2,1.08E+0
931,-4.60E-2,1.12E+0
932,-4.60E-2,1.08E+0
933,-5.00E-2,1.12E+0
934,-5.00E-2,1.12E+0
935,-4.80E-2,1.08E+0
936,-4.80E-2,1.08E+0
937,-5.20E-2,1.12E+0
938,-5.00E-2,1.08E+0
939,-4.80E-2,1.12E+0
940,-4.80E-2,1.12E+0
941,-5.00E-2,1.08E+0
942,-5.00E-2,1.08E+0
943,-4.60E-2,1.12E+0
944,-5.00E-2,1.08E+0
945,-4.80E-2,1.16E+0
946,-4.80E-2,1.16E+0
947,-5.20E-2,1.08E+0
948,-4.80E-2,1.16E+0
949,-5.40E-2,1.08E+0
950,-5.40E-2,1.08E+0
951,-4.80E-2,1.16E+0
952,-5.00E-2,1.08E+0
953,-5.40E-2,1.16E+0
