SOC_Particle/datasheets/pSpice/Rigol/noFans.csv

X,CH1,CH2,Start,Increment
Sequence,VOLT,VOLT,-3.00E-5,5.00E-8
0,0.00E+0,1.60E+0
1,-4.00E-3,1.64E+0
2,0.00E+0,1.60E+0
3,-4.00E-3,1.64E+0
4,0.00E+0,1.60E+0
5,-4.00E-3,1.64E+0
6,-4.00E-3,1.64E+0
7,0.00E+0,1.60E+0
8,0.00E+0,1.64E+0
9,-4.00E-3,1.60E+0
10,0.00E+0,1.60E+0
11,-4.00E-3,1.68E+0
12,0.00E+0,1.60E+0
13,-4.00E-3,1.68E+0
14,-4.00E-3,1.60E+0
15,0.00E+0,1.68E+0
16,0.00E+0,1.60E+0
17,-4.00E-3,1.68E+0
18,2.00E-3,1.60E+0
19,-4.00E-3,1.68E+0
20,0.00E+0,1.60E+0
21,-2.00E-3,1.68E+0
22,0.00E+0,1.60E+0
23,-4.00E-3,1.64E+0
24,0.00E+0,1.60E+0
25,-4.00E-3,1.68E+0
26,-4.00E-3,1.60E+0
27,2.00E-3,1.68E+0
28,2.00E-3,1.60E+0
29,2.00E-3,1.68E+0
30,6.00E-3,1.68E+0
31,0.00E+0,1.60E+0
32,2.00E-3,1.64E+0
33,6.00E-3,1.68E+0
34,6.00E-3,1.64E+0
35,2.00E-3,1.72E+0
36,4.00E-3,1.72E+0
37,8.00E-3,1.64E+0
38,4.00E-3,1.72E+0
39,8.00E-3,1.68E+0
40,8.00E-3,1.72E+0
41,4.00E-3,1.68E+0
42,8.00E-3,1.68E+0
43,6.00E-3,1.76E+0
44,6.00E-3,1.68E+0
45,1.20E-2,1.76E+0
46,1.00E-2,1.68E+0
47,6.00E-3,1.76E+0
48,1.20E-2,1.76E+0
49,6.00E-3,1.68E+0
50,8.00E-3,1.68E+0
51,1.20E-2,1.76E+0
52,1.00E-2,1.76E+0
53,6.00E-3,1.68E+0
54,1.00E-2,1.76E+0
55,1.20E-2,1.68E+0
56,1.00E-2,1.76E+0
57,8.00E-3,1.68E+0
58,1.40E-2,1.68E+0
59,4.00E-3,1.76E+0
60,4.00E-3,1.76E+0
61,1.60E-2,1.68E+0
62,1.20E-2,1.68E+0
63,4.00E-3,1.76E+0
64,1.00E-2,1.76E+0
65,4.00E-3,1.68E+0
66,1.00E-2,1.68E+0
67,4.00E-3,1.76E+0
68,8.00E-3,1.68E+0
69,2.00E-3,1.72E+0
70,0.00E+0,1.68E+0
71,8.00E-3,1.72E+0
72,4.00E-3,1.72E+0
73,8.00E-3,1.64E+0
74,8.00E-3,1.64E+0
75,0.00E+0,1.72E+0
76,-4.00E-3,1.68E+0
77,1.00E-2,1.64E+0
78,1.00E-2,1.64E+0
79,0.00E+0,1.68E+0
80,4.00E-3,1.72E+0
81,-4.00E-3,1.64E+0
82,-4.00E-3,1.64E+0
83,0.00E+0,1.68E+0
84,0.00E+0,1.68E+0
85,-4.00E-3,1.60E+0
86,0.00E+0,1.68E+0
87,-2.00E-3,1.60E+0
88,0.00E+0,1.60E+0
89,-4.00E-3,1.68E+0
90,-2.00E-3,1.60E+0
91,-4.00E-3,1.64E+0
92,-4.00E-3,1.64E+0
93,0.00E+0,1.56E+0
94,0.00E+0,1.56E+0
95,-4.00E-3,1.64E+0
96,-4.00E-3,1.56E+0
97,0.00E+0,1.64E+0
98,-4.00E-3,1.64E+0
99,-2.00E-3,1.56E+0
100,-2.00E-3,1.56E+0
101,-8.00E-3,1.64E+0
102,-4.00E-3,1.64E+0
103,0.00E+0,1.60E+0
104,0.00E+0,1.60E+0
105,-4.00E-3,1.64E+0
106,0.00E+0,1.60E+0
107,-6.00E-3,1.68E+0
108,-2.80E-2,1.68E+0
109,6.00E-3,1.60E+0
110,1.00E-2,1.60E+0
111,-2.60E-2,1.68E+0
112,1.20E-2,1.60E+0
113,-3.40E-2,1.68E+0
114,-4.20E-2,1.60E+0
115,8.00E-3,1.64E+0
116,-1.20E-2,1.60E+0
117,1.40E-2,1.64E+0
118,0.00E+0,1.60E+0
119,-2.40E-2,1.64E+0
120,-1.40E-2,1.60E+0
121,2.00E-3,1.64E+0
122,6.00E-3,1.64E+0
123,-1.60E-2,1.60E+0
124,-1.20E-2,1.60E+0
125,2.00E-3,1.64E+0
126,2.00E-3,1.60E+0
127,-1.00E-2,1.64E+0
128,-1.40E-2,1.60E+0
129,-2.00E-3,1.64E+0
130,-8.00E-3,1.60E+0
131,0.00E+0,1.64E+0
132,0.00E+0,1.60E+0
133,-1.00E-2,1.64E+0
134,0.00E+0,1.64E+0
135,-8.00E-3,1.60E+0
136,0.00E+0,1.60E+0
137,-1.00E-2,1.64E+0
138,-1.00E-2,1.60E+0
139,-2.00E-3,1.68E+0
140,-8.00E-3,1.60E+0
141,0.00E+0,1.68E+0
142,-6.00E-3,1.60E+0
143,0.00E+0,1.64E+0
144,-2.00E-3,1.64E+0
145,-8.00E-3,1.60E+0
146,-4.00E-3,1.60E+0
147,-2.00E-3,1.64E+0
148,-4.00E-3,1.60E+0
149,0.00E+0,1.68E+0
150,-4.00E-3,1.60E+0
151,-2.00E-3,1.68E+0
152,0.00E+0,1.60E+0
153,-4.00E-3,1.68E+0
154,-4.00E-3,1.60E+0
155,0.00E+0,1.68E+0
156,0.00E+0,1.60E+0
157,-4.00E-3,1.68E+0
158,0.00E+0,1.60E+0
159,-2.00E-3,1.68E+0
160,-2.00E-3,1.68E+0
161,2.00E-3,1.60E+0
162,2.00E-3,1.60E+0
163,-2.00E-3,1.68E+0
164,-2.00E-3,1.64E+0
165,2.00E-3,1.68E+0
166,2.00E-3,1.64E+0
167,-2.00E-3,1.68E+0
168,4.00E-3,1.64E+0
169,0.00E+0,1.72E+0
170,0.00E+0,1.64E+0
171,6.00E-3,1.72E+0
172,6.00E-3,1.64E+0
173,0.00E+0,1.72E+0
174,6.00E-3,1.72E+0
175,0.00E+0,1.68E+0
176,2.00E-3,1.68E+0
177,6.00E-3,1.72E+0
178,6.00E-3,1.72E+0
179,0.00E+0,1.68E+0
180,6.00E-3,1.72E+0
181,2.00E-3,1.68E+0
182,6.00E-3,1.72E+0
183,0.00E+0,1.68E+0
184,2.00E-3,1.68E+0
185,6.00E-3,1.72E+0
186,6.00E-3,1.72E+0
187,0.00E+0,1.68E+0
188,2.00E-3,1.72E+0
189,4.00E-3,1.68E+0
190,2.00E-3,1.68E+0
191,0.00E+0,1.72E+0
192,2.00E-3,1.72E+0
193,-2.00E-3,1.68E+0
194,2.00E-3,1.68E+0
195,-2.00E-3,1.72E+0
196,2.00E-3,1.72E+0
197,-2.00E-3,1.68E+0
198,0.00E+0,1.72E+0
199,-4.00E-3,1.64E+0
200,0.00E+0,1.72E+0
201,-4.00E-3,1.64E+0
202,-4.00E-3,1.64E+0
203,-2.00E-3,1.72E+0
204,-2.00E-3,1.72E+0
205,-8.00E-3,1.64E+0
206,-4.00E-3,1.64E+0
207,-1.00E-2,1.72E+0
208,-6.00E-3,1.64E+0
209,-1.00E-2,1.68E+0
210,-6.00E-3,1.68E+0
211,-1.20E-2,1.60E+0
212,-1.00E-2,1.60E+0
213,-6.00E-3,1.68E+0
214,-8.00E-3,1.60E+0
215,-1.20E-2,1.64E+0
216,-6.00E-3,1.64E+0
217,-1.20E-2,1.56E+0
218,-1.40E-2,1.64E+0
219,-4.00E-3,1.60E+0
220,-6.00E-3,1.60E+0
221,-1.20E-2,1.64E+0
222,-1.20E-2,1.60E+0
223,-6.00E-3,1.64E+0
224,-1.20E-2,1.60E+0
225,-6.00E-3,1.64E+0
226,-1.20E-2,1.60E+0
227,-6.00E-3,1.64E+0
228,-6.00E-3,1.60E+0
229,-1.00E-2,1.64E+0
230,-1.00E-2,1.60E+0
231,-6.00E-3,1.64E+0
232,-1.00E-2,1.60E+0
233,-8.00E-3,1.64E+0
234,-1.00E-2,1.60E+0
235,-6.00E-3,1.64E+0
236,-1.60E-2,1.60E+0
237,2.00E-3,1.64E+0
238,-1.80E-2,1.64E+0
239,0.00E+0,1.60E+0
240,-2.00E-3,1.60E+0
241,-1.20E-2,1.64E+0
242,-4.00E-3,1.60E+0
243,-1.00E-2,1.64E+0
244,-4.00E-3,1.68E+0
245,-1.00E-2,1.60E+0
246,-1.00E-2,1.60E+0
247,-4.00E-3,1.68E+0
248,-1.20E-2,1.60E+0
249,-6.00E-3,1.64E+0
250,-2.00E-3,1.60E+0
251,-1.60E-2,1.64E+0
252,-1.20E-2,1.64E+0
253,-4.00E-3,1.56E+0
254,-6.00E-3,1.64E+0
255,-1.00E-2,1.56E+0
256,-8.00E-3,1.56E+0
257,-2.00E-3,1.64E+0
258,-8.00E-3,1.60E+0
259,-2.00E-3,1.64E+0
260,-2.00E-3,1.60E+0
261,-8.00E-3,1.64E+0
262,-2.00E-3,1.60E+0
263,-6.00E-3,1.64E+0
264,-4.00E-3,1.60E+0
265,0.00E+0,1.68E+0
266,-4.00E-3,1.60E+0
267,0.00E+0,1.68E+0
268,-4.00E-3,1.68E+0
269,0.00E+0,1.60E+0
270,0.00E+0,1.68E+0
271,-4.00E-3,1.60E+0
272,-2.00E-3,1.60E+0
273,0.00E+0,1.68E+0
274,-2.00E-3,1.68E+0
275,0.00E+0,1.60E+0
276,-2.00E-3,1.64E+0
277,2.00E-3,1.68E+0
278,2.00E-3,1.64E+0
279,-2.00E-3,1.68E+0
280,2.00E-3,1.68E+0
281,-2.00E-3,1.60E+0
282,2.00E-3,1.64E+0
283,0.00E+0,1.68E+0
284,2.00E-3,1.64E+0
285,2.00E-3,1.68E+0
286,0.00E+0,1.64E+0
287,4.00E-3,1.68E+0
288,0.00E+0,1.64E+0
289,8.00E-3,1.68E+0
290,4.00E-3,1.68E+0
291,8.00E-3,1.64E+0
292,8.00E-3,1.64E+0
293,4.00E-3,1.72E+0
294,8.00E-3,1.64E+0
295,4.00E-3,1.72E+0
296,8.00E-3,1.68E+0
297,6.00E-3,1.72E+0
298,1.00E-2,1.68E+0
299,6.00E-3,1.76E+0
300,1.00E-2,1.68E+0
301,6.00E-3,1.76E+0
302,1.20E-2,1.68E+0
303,6.00E-3,1.76E+0
304,1.00E-2,1.76E+0
305,6.00E-3,1.68E+0
306,6.00E-3,1.68E+0
307,1.40E-2,1.76E+0
308,8.00E-3,1.76E+0
309,1.40E-2,1.68E+0
310,1.00E-2,1.68E+0
311,1.20E-2,1.76E+0
312,4.00E-3,1.68E+0
313,1.60E-2,1.76E+0
314,6.00E-3,1.76E+0
315,1.40E-2,1.68E+0
316,1.60E-2,1.76E+0
317,0.00E+0,1.68E+0
318,2.00E-3,1.68E+0
319,1.80E-2,1.76E+0
320,4.00E-3,1.76E+0
321,1.60E-2,1.68E+0
322,1.00E-2,1.68E+0
323,4.00E-3,1.76E+0
324,4.00E-3,1.68E+0
325,1.00E-2,1.72E+0
326,1.00E-2,1.68E+0
327,4.00E-3,1.72E+0
328,1.00E-2,1.72E+0
329,4.00E-3,1.64E+0
330,8.00E-3,1.72E+0
331,2.00E-3,1.64E+0
332,6.00E-3,1.72E+0
333,0.00E+0,1.64E+0
334,0.00E+0,1.72E+0
335,4.00E-3,1.64E+0
336,2.00E-3,1.64E+0
337,-2.00E-3,1.72E+0
338,2.00E-3,1.64E+0
339,-4.00E-3,1.68E+0
340,-4.00E-3,1.64E+0
341,0.00E+0,1.68E+0
342,-2.00E-3,1.68E+0
343,-4.00E-3,1.60E+0
344,-2.00E-3,1.60E+0
345,-8.00E-3,1.68E+0
346,-8.00E-3,1.60E+0
347,-2.00E-3,1.64E+0
348,-6.00E-3,1.64E+0
349,-1.00E-2,1.56E+0
350,-8.00E-3,1.56E+0
351,-2.00E-2,1.64E+0
352,8.00E-3,1.60E+0
353,-2.60E-2,1.56E+0
354,8.00E-3,1.60E+0
355,-2.80E-2,1.52E+0
356,-3.00E-2,1.52E+0
357,1.20E-2,1.60E+0
358,-3.00E-2,1.56E+0
359,1.60E-2,1.60E+0
360,1.20E-2,1.56E+0
361,-2.60E-2,1.60E+0
362,8.00E-3,1.56E+0
363,-2.00E-2,1.60E+0
364,6.00E-3,1.56E+0
365,-2.40E-2,1.64E+0
366,-2.00E-2,1.56E+0
367,8.00E-3,1.64E+0
368,-2.00E-2,1.56E+0
369,4.00E-3,1.64E+0
370,-2.00E-2,1.64E+0
371,2.00E-3,1.56E+0
372,2.00E-3,1.64E+0
373,-2.00E-2,1.56E+0
374,4.00E-3,1.64E+0
375,-1.80E-2,1.56E+0
376,2.00E-3,1.60E+0
377,-1.80E-2,1.64E+0
378,2.00E-3,1.60E+0
379,-1.40E-2,1.64E+0
380,-1.80E-2,1.60E+0
381,2.00E-3,1.64E+0
382,-1.60E-2,1.60E+0
383,6.00E-3,1.64E+0
384,6.00E-3,1.60E+0
385,-1.20E-2,1.64E+0
386,0.00E+0,1.60E+0
387,-1.40E-2,1.64E+0
388,-1.00E-2,1.60E+0
389,-2.00E-3,1.64E+0
390,-1.00E-2,1.64E+0
391,2.00E-3,1.60E+0
392,-8.00E-3,1.60E+0
393,0.00E+0,1.64E+0
394,-2.00E-3,1.60E+0
395,-1.00E-2,1.68E+0
396,-1.00E-2,1.60E+0
397,0.00E+0,1.68E+0
398,0.00E+0,1.60E+0
399,-6.00E-3,1.68E+0
400,0.00E+0,1.60E+0
401,-8.00E-3,1.68E+0
402,0.00E+0,1.60E+0
403,-8.00E-3,1.68E+0
404,-8.00E-3,1.68E+0
405,0.00E+0,1.60E+0
406,-4.00E-3,1.60E+0
407,0.00E+0,1.68E+0
408,0.00E+0,1.60E+0
409,-4.00E-3,1.68E+0
410,-4.00E-3,1.60E+0
411,2.00E-3,1.68E+0
412,2.00E-3,1.68E+0
413,-4.00E-3,1.60E+0
414,-4.00E-3,1.68E+0
415,2.00E-3,1.60E+0
416,2.00E-3,1.68E+0
417,-4.00E-3,1.60E+0
418,2.00E-3,1.60E+0
419,-4.00E-3,1.68E+0
420,2.00E-3,1.64E+0
421,-2.00E-3,1.68E+0
422,2.00E-3,1.68E+0
423,4.00E-3,1.60E+0
424,0.00E+0,1.68E+0
425,6.00E-3,1.60E+0
426,4.00E-3,1.68E+0
427,6.00E-3,1.64E+0
428,2.00E-3,1.64E+0
429,8.00E-3,1.72E+0
430,2.00E-3,1.64E+0
431,8.00E-3,1.72E+0
432,4.00E-3,1.68E+0
433,8.00E-3,1.72E+0
434,8.00E-3,1.68E+0
435,4.00E-3,1.72E+0
436,8.00E-3,1.68E+0
437,6.00E-3,1.76E+0
438,8.00E-3,1.68E+0
439,6.00E-3,1.76E+0
440,8.00E-3,1.68E+0
441,6.00E-3,1.76E+0
442,8.00E-3,1.68E+0
443,6.00E-3,1.76E+0
444,8.00E-3,1.76E+0
445,4.00E-3,1.68E+0
446,8.00E-3,1.68E+0
447,4.00E-3,1.76E+0
448,6.00E-3,1.72E+0
449,4.00E-3,1.68E+0
450,4.00E-3,1.72E+0
451,6.00E-3,1.68E+0
452,4.00E-3,1.72E+0
453,6.00E-3,1.64E+0
454,6.00E-3,1.72E+0
455,2.00E-3,1.64E+0
456,6.00E-3,1.72E+0
457,2.00E-3,1.64E+0
458,6.00E-3,1.64E+0
459,0.00E+0,1.72E+0
460,0.00E+0,1.72E+0
461,2.00E-3,1.64E+0
462,2.00E-3,1.72E+0
463,0.00E+0,1.64E+0
464,2.00E-3,1.64E+0
465,-2.00E-3,1.72E+0
466,-2.00E-3,1.64E+0
467,0.00E+0,1.72E+0
468,0.00E+0,1.64E+0
469,-4.00E-3,1.72E+0
470,-2.00E-3,1.64E+0
471,-4.00E-3,1.68E+0
472,-1.00E-2,1.68E+0
473,-2.00E-3,1.64E+0
474,-1.00E-2,1.68E+0
475,-2.00E-3,1.60E+0
476,-1.20E-2,1.60E+0
477,-2.00E-3,1.68E+0
478,-2.00E-3,1.60E+0
479,-1.00E-2,1.64E+0
480,-1.00E-2,1.64E+0
481,-6.00E-3,1.60E+0
482,-6.00E-3,1.60E+0
483,-1.00E-2,1.64E+0
484,-6.00E-3,1.60E+0
485,-1.20E-2,1.64E+0
486,-1.20E-2,1.60E+0
487,-2.00E-3,1.64E+0
488,-1.00E-2,1.60E+0
489,-4.00E-3,1.64E+0
490,-6.00E-3,1.60E+0
491,-1.00E-2,1.64E+0
492,-1.00E-2,1.60E+0
493,-2.00E-3,1.64E+0
494,-6.00E-3,1.64E+0
495,-1.00E-2,1.56E+0
496,-6.00E-3,1.60E+0
497,-8.00E-3,1.64E+0
498,-6.00E-3,1.60E+0
499,-8.00E-3,1.64E+0
500,-8.00E-3,1.64E+0
501,-6.00E-3,1.60E+0
502,-8.00E-3,1.60E+0
503,-6.00E-3,1.64E+0
504,-8.00E-3,1.60E+0
505,-2.00E-3,1.64E+0
506,-8.00E-3,1.60E+0
507,-4.00E-3,1.64E+0
508,-8.00E-3,1.60E+0
509,-4.00E-3,1.64E+0
510,-8.00E-3,1.60E+0
511,-2.00E-3,1.68E+0
512,-8.00E-3,1.60E+0
513,-2.00E-3,1.68E+0
514,-2.00E-3,1.60E+0
515,-6.00E-3,1.68E+0
516,-4.00E-3,1.60E+0
517,-2.00E-3,1.68E+0
518,-4.00E-3,1.68E+0
519,-2.00E-3,1.60E+0
520,-4.00E-3,1.60E+0
521,0.00E+0,1.68E+0
522,-4.00E-3,1.60E+0
523,0.00E+0,1.68E+0
524,0.00E+0,1.68E+0
525,-4.00E-3,1.60E+0
526,-4.00E-3,1.60E+0
527,0.00E+0,1.68E+0
528,-4.00E-3,1.60E+0
529,2.00E-3,1.68E+0
530,0.00E+0,1.68E+0
531,-4.00E-3,1.60E+0
532,0.00E+0,1.68E+0
533,-2.00E-3,1.60E+0
534,-6.00E-3,1.68E+0
535,6.00E-3,1.60E+0
536,-4.00E-3,1.68E+0
537,2.00E-3,1.60E+0
538,-2.00E-3,1.68E+0
539,2.00E-3,1.60E+0
540,-4.00E-3,1.68E+0
541,4.00E-3,1.60E+0
542,-2.00E-3,1.60E+0
543,6.00E-3,1.68E+0
544,-4.00E-3,1.60E+0
545,8.00E-3,1.68E+0
546,8.00E-3,1.64E+0
547,-4.00E-3,1.68E+0
548,4.00E-3,1.68E+0
549,-4.00E-3,1.64E+0
550,0.00E+0,1.68E+0
551,8.00E-3,1.60E+0
552,1.00E-2,1.64E+0
553,0.00E+0,1.68E+0
554,4.00E-3,1.64E+0
555,8.00E-3,1.72E+0
556,2.00E-3,1.72E+0
557,6.00E-3,1.64E+0
558,1.00E-2,1.72E+0
559,2.00E-3,1.64E+0
560,4.00E-3,1.72E+0
561,1.40E-2,1.64E+0
562,1.40E-2,1.64E+0
563,4.00E-3,1.72E+0
564,6.00E-3,1.72E+0
565,2.00E-3,1.64E+0
566,4.00E-3,1.72E+0
567,1.00E-2,1.64E+0
568,6.00E-3,1.64E+0
569,1.00E-2,1.72E+0
570,1.00E-2,1.64E+0
571,6.00E-3,1.72E+0
572,6.00E-3,1.72E+0
573,8.00E-3,1.64E+0
574,8.00E-3,1.72E+0
575,4.00E-3,1.64E+0
576,8.00E-3,1.72E+0
577,6.00E-3,1.64E+0
578,6.00E-3,1.72E+0
579,8.00E-3,1.64E+0
580,8.00E-3,1.72E+0
581,4.00E-3,1.64E+0
582,8.00E-3,1.72E+0
583,4.00E-3,1.64E+0
584,6.00E-3,1.64E+0
585,2.00E-3,1.72E+0
586,4.00E-3,1.64E+0
587,8.00E-3,1.72E+0
588,4.00E-3,1.72E+0
589,6.00E-3,1.64E+0
590,6.00E-3,1.64E+0
591,0.00E+0,1.72E+0
592,2.00E-3,1.72E+0
593,-4.00E-3,1.64E+0
594,-2.60E-2,1.72E+0
595,1.40E-2,1.64E+0
596,1.20E-2,1.64E+0
597,-2.40E-2,1.72E+0
598,1.00E-2,1.64E+0
599,-4.40E-2,1.68E+0
600,8.00E-3,1.68E+0
601,-1.40E-2,1.60E+0
602,1.40E-2,1.60E+0
603,-2.00E-2,1.68E+0
604,-2.40E-2,1.60E+0
605,-4.00E-3,1.68E+0
606,-1.40E-2,1.60E+0
607,2.00E-3,1.64E+0
608,0.00E+0,1.60E+0
609,-1.80E-2,1.64E+0
610,0.00E+0,1.64E+0
611,-1.00E-2,1.56E+0
612,0.00E+0,1.64E+0
613,-1.80E-2,1.56E+0
614,-1.80E-2,1.60E+0
615,-4.00E-3,1.64E+0
616,-1.20E-2,1.64E+0
617,-2.00E-3,1.60E+0
618,-6.00E-3,1.60E+0
619,-1.20E-2,1.64E+0
620,-6.00E-3,1.64E+0
621,-1.00E-2,1.60E+0
622,-2.00E-3,1.60E+0
623,-1.20E-2,1.64E+0
624,-1.20E-2,1.60E+0
625,-6.00E-3,1.64E+0
626,-1.00E-2,1.60E+0
627,-6.00E-3,1.64E+0
628,-6.00E-3,1.60E+0
629,-8.00E-3,1.64E+0
630,-6.00E-3,1.64E+0
631,-1.00E-2,1.60E+0
632,-8.00E-3,1.60E+0
633,-6.00E-3,1.64E+0
634,-6.00E-3,1.60E+0
635,-8.00E-3,1.64E+0
636,-8.00E-3,1.60E+0
637,-4.00E-3,1.64E+0
638,-8.00E-3,1.60E+0
639,-2.00E-3,1.68E+0
640,-2.00E-3,1.60E+0
641,-8.00E-3,1.68E+0
642,-6.00E-3,1.60E+0
643,-2.00E-3,1.68E+0
644,-8.00E-3,1.60E+0
645,-2.00E-3,1.68E+0
646,-4.00E-3,1.60E+0
647,-2.00E-3,1.68E+0
648,-2.00E-3,1.60E+0
649,-6.00E-3,1.68E+0
650,-6.00E-3,1.60E+0
651,0.00E+0,1.68E+0
652,-4.00E-3,1.60E+0
653,0.00E+0,1.68E+0
654,0.00E+0,1.60E+0
655,-4.00E-3,1.68E+0
656,0.00E+0,1.68E+0
657,-4.00E-3,1.60E+0
658,0.00E+0,1.60E+0
659,-4.00E-3,1.68E+0
660,0.00E+0,1.68E+0
661,-4.00E-3,1.60E+0
662,0.00E+0,1.68E+0
663,-2.00E-3,1.60E+0
664,-2.00E-3,1.68E+0
665,2.00E-3,1.60E+0
666,-2.00E-3,1.68E+0
667,2.00E-3,1.60E+0
668,-2.00E-3,1.60E+0
669,2.00E-3,1.68E+0
670,2.00E-3,1.68E+0
671,-2.00E-3,1.60E+0
672,2.00E-3,1.68E+0
673,0.00E+0,1.60E+0
674,0.00E+0,1.60E+0
675,6.00E-3,1.68E+0
676,2.00E-3,1.68E+0
677,6.00E-3,1.64E+0
678,6.00E-3,1.68E+0
679,0.00E+0,1.60E+0
680,2.00E-3,1.64E+0
681,6.00E-3,1.68E+0
682,0.00E+0,1.64E+0
683,8.00E-3,1.68E+0
684,6.00E-3,1.68E+0
685,8.00E-3,1.64E+0
686,8.00E-3,1.64E+0
687,6.00E-3,1.72E+0
688,6.00E-3,1.72E+0
689,1.00E-2,1.64E+0
690,1.20E-2,1.72E+0
691,6.00E-3,1.64E+0
692,4.00E-3,1.68E+0
693,1.60E-2,1.76E+0
694,1.60E-2,1.68E+0
695,4.00E-3,1.76E+0
696,1.40E-2,1.76E+0
697,6.00E-3,1.68E+0
698,1.40E-2,1.68E+0
699,6.00E-3,1.76E+0
700,1.00E-2,1.76E+0
701,1.40E-2,1.68E+0
702,1.40E-2,1.68E+0
703,1.00E-2,1.76E+0
704,1.00E-2,1.68E+0
705,1.40E-2,1.76E+0
706,1.40E-2,1.76E+0
707,1.00E-2,1.68E+0
708,1.00E-2,1.76E+0
709,1.40E-2,1.68E+0
710,1.00E-2,1.76E+0
711,1.40E-2,1.68E+0
712,1.00E-2,1.68E+0
713,1.20E-2,1.76E+0
714,1.00E-2,1.76E+0
715,1.20E-2,1.68E+0
716,6.00E-3,1.68E+0
717,1.20E-2,1.76E+0
718,1.00E-2,1.68E+0
719,6.00E-3,1.76E+0
720,6.00E-3,1.72E+0
721,1.00E-2,1.68E+0
722,8.00E-3,1.68E+0
723,4.00E-3,1.72E+0
724,8.00E-3,1.72E+0
725,4.00E-3,1.68E+0
726,4.00E-3,1.68E+0
727,6.00E-3,1.72E+0
728,6.00E-3,1.72E+0
729,2.00E-3,1.64E+0
730,6.00E-3,1.64E+0
731,0.00E+0,1.72E+0
732,2.00E-3,1.72E+0
733,-2.00E-3,1.64E+0
734,0.00E+0,1.64E+0
735,-4.00E-3,1.68E+0
736,0.00E+0,1.64E+0
737,-4.00E-3,1.68E+0
738,0.00E+0,1.68E+0
739,-4.00E-3,1.60E+0
740,-4.00E-3,1.68E+0
741,-2.00E-3,1.60E+0
742,-4.00E-3,1.64E+0
743,-2.00E-3,1.60E+0
744,-4.00E-3,1.60E+0
745,-2.00E-3,1.64E+0
746,-2.00E-3,1.64E+0
747,-6.00E-3,1.56E+0
748,-2.00E-3,1.64E+0
749,-6.00E-3,1.56E+0
750,-2.00E-3,1.56E+0
751,-8.00E-3,1.64E+0
752,-8.00E-3,1.56E+0
753,-2.00E-3,1.64E+0
754,-2.00E-3,1.56E+0
755,-8.00E-3,1.64E+0
756,-8.00E-3,1.64E+0
757,-2.00E-3,1.56E+0
758,-8.00E-3,1.64E+0
759,-2.00E-3,1.56E+0
760,-8.00E-3,1.64E+0
761,-2.00E-3,1.56E+0
762,-8.00E-3,1.60E+0
763,-2.00E-3,1.64E+0
764,-8.00E-3,1.64E+0
765,-2.00E-3,1.56E+0
766,-2.00E-3,1.56E+0
767,-8.00E-3,1.64E+0
768,-2.00E-3,1.64E+0
769,-6.00E-3,1.56E+0
770,-6.00E-3,1.64E+0
771,-2.00E-3,1.56E+0
772,-8.00E-3,1.60E+0
773,-2.00E-3,1.64E+0
774,-2.00E-3,1.64E+0
775,-8.00E-3,1.56E+0
776,-2.00E-3,1.60E+0
777,-6.00E-3,1.64E+0
778,-6.00E-3,1.64E+0
779,-2.00E-3,1.56E+0
780,-4.00E-3,1.60E+0
781,-2.00E-3,1.64E+0
782,-4.00E-3,1.60E+0
783,-2.00E-3,1.64E+0
784,-2.00E-3,1.60E+0
785,-4.00E-3,1.64E+0
786,-4.00E-3,1.60E+0
787,0.00E+0,1.64E+0
788,0.00E+0,1.64E+0
789,-4.00E-3,1.60E+0
790,0.00E+0,1.60E+0
791,-4.00E-3,1.64E+0
792,-4.00E-3,1.60E+0
793,0.00E+0,1.64E+0
794,0.00E+0,1.60E+0
795,-8.00E-3,1.64E+0
796,-6.00E-3,1.60E+0
797,2.00E-3,1.64E+0
798,-2.00E-3,1.60E+0
799,2.00E-3,1.64E+0
800,-1.00E-2,1.64E+0
801,6.00E-3,1.60E+0
802,-1.00E-2,1.60E+0
803,8.00E-3,1.64E+0
804,-2.00E-3,1.60E+0
805,6.00E-3,1.68E+0
806,2.00E-3,1.64E+0
807,-4.00E-3,1.60E+0
808,2.00E-3,1.60E+0
809,-2.00E-3,1.68E+0
810,0.00E+0,1.60E+0
811,6.00E-3,1.68E+0
812,6.00E-3,1.68E+0
813,2.00E-3,1.60E+0
814,6.00E-3,1.68E+0
815,2.00E-3,1.60E+0
816,2.00E-3,1.64E+0
817,6.00E-3,1.68E+0
818,4.00E-3,1.68E+0
819,8.00E-3,1.64E+0
820,8.00E-3,1.64E+0
821,4.00E-3,1.72E+0
822,8.00E-3,1.64E+0
823,4.00E-3,1.72E+0
824,8.00E-3,1.72E+0
825,4.00E-3,1.64E+0
826,8.00E-3,1.64E+0
827,6.00E-3,1.72E+0
828,6.00E-3,1.68E+0
829,8.00E-3,1.72E+0
830,6.00E-3,1.72E+0
831,1.20E-2,1.68E+0
832,6.00E-3,1.72E+0
833,8.00E-3,1.68E+0
834,8.00E-3,1.72E+0
835,4.00E-3,1.68E+0
836,-6.00E-3,1.68E+0
837,2.20E-2,1.72E+0
838,2.20E-2,1.68E+0
839,-1.20E-2,1.72E+0
840,2.20E-2,1.72E+0
841,-1.80E-2,1.64E+0
842,2.80E-2,1.68E+0
843,-6.00E-3,1.72E+0
844,-1.60E-2,1.68E+0
845,2.80E-2,1.72E+0
846,-1.20E-2,1.68E+0
847,1.80E-2,1.72E+0
848,1.60E-2,1.72E+0
849,-1.00E-2,1.64E+0
850,1.60E-2,1.72E+0
851,-1.20E-2,1.64E+0
852,1.60E-2,1.72E+0
853,-1.20E-2,1.64E+0
854,1.40E-2,1.64E+0
855,-1.20E-2,1.72E+0
856,-1.20E-2,1.72E+0
857,8.00E-3,1.64E+0
858,-1.80E-2,1.64E+0
859,8.00E-3,1.68E+0
860,4.00E-3,1.64E+0
861,-1.80E-2,1.68E+0
862,6.00E-3,1.64E+0
863,-1.40E-2,1.68E+0
864,2.00E-3,1.60E+0
865,-1.60E-2,1.68E+0
866,-1.40E-2,1.60E+0
867,0.00E+0,1.64E+0
868,-1.40E-2,1.64E+0
869,0.00E+0,1.60E+0
870,-1.40E-2,1.64E+0
871,-2.00E-3,1.56E+0
872,-4.00E-3,1.64E+0
873,-1.60E-2,1.56E+0
874,-6.00E-3,1.56E+0
875,-1.60E-2,1.64E+0
876,-4.00E-3,1.56E+0
877,-1.60E-2,1.60E+0
878,-1.20E-2,1.60E+0
879,-6.00E-3,1.56E+0
880,-1.20E-2,1.56E+0
881,-6.00E-3,1.60E+0
882,-1.20E-2,1.56E+0
883,-6.00E-3,1.60E+0
884,-1.20E-2,1.56E+0
885,-6.00E-3,1.64E+0
886,-6.00E-3,1.56E+0
887,-1.20E-2,1.64E+0
888,-4.00E-3,1.56E+0
889,-1.20E-2,1.64E+0
890,-1.00E-2,1.56E+0
891,-6.00E-3,1.64E+0
892,-1.00E-2,1.64E+0
893,-6.00E-3,1.56E+0
894,-1.00E-2,1.64E+0
895,-6.00E-3,1.56E+0
896,-1.00E-2,1.56E+0
897,-4.00E-3,1.64E+0
898,-8.00E-3,1.60E+0
899,-6.00E-3,1.64E+0
900,-6.00E-3,1.60E+0
901,-1.00E-2,1.64E+0
902,-8.00E-3,1.60E+0
903,-2.00E-3,1.64E+0
904,-8.00E-3,1.60E+0
905,0.00E+0,1.64E+0
906,-8.00E-3,1.60E+0
907,-2.00E-3,1.64E+0
908,-2.00E-3,1.60E+0
909,-6.00E-3,1.68E+0
910,-8.00E-3,1.60E+0
911,-2.00E-3,1.68E+0
912,-8.00E-3,1.60E+0
913,0.00E+0,1.68E+0
914,0.00E+0,1.60E+0
915,-4.00E-3,1.68E+0
916,-4.00E-3,1.60E+0
917,0.00E+0,1.64E+0
918,-4.00E-3,1.60E+0
919,0.00E+0,1.68E+0
920,0.00E+0,1.68E+0
921,-4.00E-3,1.60E+0
922,0.00E+0,1.60E+0
923,-4.00E-3,1.68E+0
924,0.00E+0,1.68E+0
925,-2.00E-3,1.60E+0
926,-2.00E-3,1.60E+0
927,0.00E+0,1.68E+0
928,2.00E-3,1.60E+0
929,-4.00E-3,1.68E+0
930,-2.00E-3,1.60E+0
931,2.00E-3,1.68E+0
932,2.00E-3,1.68E+0
933,-2.00E-3,1.60E+0
934,2.00E-3,1.68E+0
935,-2.00E-3,1.60E+0
936,2.00E-3,1.68E+0
937,0.00E+0,1.60E+0
938,2.00E-3,1.64E+0
939,0.00E+0,1.68E+0
940,2.00E-3,1.68E+0
941,6.00E-3,1.60E+0
942,6.00E-3,1.64E+0
943,0.00E+0,1.68E+0
944,6.00E-3,1.68E+0
945,2.00E-3,1.60E+0
946,2.00E-3,1.68E+0
947,8.00E-3,1.64E+0
948,8.00E-3,1.68E+0
949,4.00E-3,1.64E+0
950,4.00E-3,1.64E+0
951,1.20E-2,1.72E+0
952,4.00E-3,1.72E+0
953,1.20E-2,1.64E+0
954,6.00E-3,1.72E+0
955,1.20E-2,1.64E+0
956,6.00E-3,1.68E+0
957,1.00E-2,1.72E+0
958,6.00E-3,1.68E+0
959,1.20E-2,1.72E+0
960,1.00E-2,1.72E+0
961,6.00E-3,1.64E+0
962,1.00E-2,1.72E+0
963,6.00E-3,1.68E+0
964,1.20E-2,1.72E+0
965,8.00E-3,1.68E+0
966,1.00E-2,1.68E+0
967,1.20E-2,1.72E+0
968,1.00E-2,1.68E+0
969,1.20E-2,1.72E+0
970,1.00E-2,1.68E+0
971,1.00E-2,1.72E+0
972,1.00E-2,1.72E+0
973,1.20E-2,1.68E+0
974,1.00E-2,1.68E+0
975,1.00E-2,1.72E+0
976,6.00E-3,1.68E+0
977,1.20E-2,1.72E+0
978,1.20E-2,1.68E+0
