SOC_Particle/datasheets/pSpice/Rigol/oneFanHi.csv

X,CH1,CH2,Start,Increment
Sequence,VOLT,VOLT,-3.00E-2,5.00E-5
0,8.00E-3,1.56E+0
1,-4.20E-2,1.76E+0
2,8.00E-3,1.72E+0
3,-4.40E-2,1.52E+0
4,2.00E-3,1.76E+0
5,-4.60E-2,1.52E+0
6,0.00E+0,1.72E+0
7,-5.00E-2,1.48E+0
8,-5.60E-2,1.68E+0
9,-2.00E-3,1.44E+0
10,-6.00E-3,1.64E+0
11,-6.20E-2,1.40E+0
12,-8.00E-3,1.64E+0
13,-6.20E-2,1.36E+0
14,-8.00E-3,1.60E+0
15,-7.00E-2,1.28E+0
16,-1.20E-2,1.56E+0
17,-7.40E-2,1.28E+0
18,-1.40E-2,1.28E+0
19,-8.00E-2,1.56E+0
20,-6.20E-2,1.28E+0
21,-1.20E-2,1.52E+0
22,-4.80E-2,1.36E+0
23,0.00E+0,1.64E+0
24,-2.20E-2,1.48E+0
25,8.00E-3,1.72E+0
26,-1.60E-2,1.56E+0
27,1.00E-2,1.76E+0
28,1.00E-2,1.60E+0
29,-1.00E-2,1.80E+0
30,1.40E-2,1.64E+0
31,-1.40E-2,1.84E+0
32,1.20E-2,1.84E+0
33,-1.20E-2,1.64E+0
34,1.40E-2,1.64E+0
35,-1.40E-2,1.84E+0
36,1.00E-2,1.84E+0
37,-1.20E-2,1.64E+0
38,-1.20E-2,1.84E+0
39,1.20E-2,1.64E+0
40,1.20E-2,1.84E+0
41,-1.60E-2,1.64E+0
42,1.40E-2,1.84E+0
43,-2.00E-2,1.64E+0
44,1.20E-2,1.64E+0
45,-2.20E-2,1.84E+0
46,-2.40E-2,1.60E+0
47,1.40E-2,1.84E+0
48,1.00E-2,1.84E+0
49,-2.80E-2,1.60E+0
50,1.00E-2,1.80E+0
51,-3.20E-2,1.60E+0
52,6.00E-3,1.80E+0
53,-3.60E-2,1.56E+0
54,6.00E-3,1.80E+0
55,-3.80E-2,1.56E+0
56,-4.00E-2,1.56E+0
57,8.00E-3,1.76E+0
58,-2.00E-2,1.56E+0
59,8.00E-3,1.80E+0
60,-1.60E-2,1.60E+0
61,1.00E-2,1.80E+0
62,1.00E-2,1.80E+0
63,-1.60E-2,1.60E+0
64,1.20E-2,1.64E+0
65,-1.40E-2,1.84E+0
66,-1.20E-2,1.84E+0
67,1.20E-2,1.64E+0
68,1.00E-2,1.84E+0
69,-1.60E-2,1.64E+0
70,-1.20E-2,1.84E+0
71,1.20E-2,1.64E+0
72,1.00E-2,1.84E+0
73,-1.60E-2,1.64E+0
74,1.00E-2,1.84E+0
75,-1.20E-2,1.64E+0
76,-1.20E-2,1.64E+0
77,1.00E-2,1.84E+0
78,1.00E-2,1.64E+0
79,-1.40E-2,1.84E+0
80,-1.20E-2,1.84E+0
81,1.20E-2,1.64E+0
82,-1.20E-2,1.84E+0
83,1.40E-2,1.60E+0
84,-1.40E-2,1.64E+0
85,1.20E-2,1.84E+0
86,1.20E-2,1.64E+0
87,-1.20E-2,1.84E+0
88,1.00E-2,1.84E+0
89,-1.20E-2,1.64E+0
90,1.00E-2,1.84E+0
91,-1.20E-2,1.64E+0
92,-1.40E-2,1.64E+0
93,1.20E-2,1.84E+0
94,1.00E-2,1.64E+0
95,-1.20E-2,1.84E+0
96,1.00E-2,1.84E+0
97,-1.40E-2,1.64E+0
98,-1.40E-2,1.64E+0
99,1.20E-2,1.84E+0
100,1.00E-2,1.64E+0
101,-1.40E-2,1.84E+0
102,-1.20E-2,1.84E+0
103,1.40E-2,1.64E+0
104,-1.20E-2,1.84E+0
105,1.20E-2,1.64E+0
106,-1.20E-2,1.64E+0
107,1.20E-2,1.84E+0
108,-1.20E-2,1.64E+0
109,1.00E-2,1.84E+0
110,-1.40E-2,1.84E+0
111,1.40E-2,1.64E+0
112,1.00E-2,1.84E+0
113,-1.40E-2,1.64E+0
114,1.00E-2,1.64E+0
115,-1.40E-2,1.84E+0
116,1.00E-2,1.84E+0
117,-1.60E-2,1.60E+0
118,1.00E-2,1.64E+0
119,-1.40E-2,1.84E+0
120,-1.40E-2,1.84E+0
121,1.40E-2,1.64E+0
122,-1.60E-2,1.64E+0
123,1.40E-2,1.84E+0
124,-1.40E-2,1.84E+0
125,1.60E-2,1.64E+0
126,1.80E-2,1.84E+0
127,-1.60E-2,1.64E+0
128,1.60E-2,1.84E+0
129,-1.60E-2,1.64E+0
130,1.40E-2,1.64E+0
131,-1.60E-2,1.84E+0
132,1.40E-2,1.84E+0
133,-1.80E-2,1.64E+0
134,1.60E-2,1.64E+0
135,-2.00E-2,1.84E+0
136,-1.60E-2,1.84E+0
137,2.20E-2,1.64E+0
138,-1.80E-2,1.64E+0
139,1.20E-2,1.84E+0
140,-1.40E-2,1.84E+0
141,1.40E-2,1.60E+0
142,-1.60E-2,1.84E+0
143,1.20E-2,1.64E+0
144,-1.20E-2,1.84E+0
145,1.60E-2,1.64E+0
146,1.20E-2,1.64E+0
147,-1.60E-2,1.84E+0
148,1.60E-2,1.84E+0
149,-2.00E-2,1.64E+0
150,1.60E-2,1.84E+0
151,-1.80E-2,1.60E+0
152,8.00E-3,1.80E+0
153,-2.40E-2,1.60E+0
154,-2.00E-2,1.80E+0
155,1.00E-2,1.60E+0
156,1.60E-2,1.60E+0
157,-3.20E-2,1.80E+0
158,-2.60E-2,1.80E+0
159,8.00E-3,1.56E+0
160,4.00E-3,1.76E+0
161,-4.40E-2,1.56E+0
162,4.00E-3,1.76E+0
163,-4.20E-2,1.52E+0
164,6.00E-3,1.76E+0
165,-5.00E-2,1.52E+0
166,2.00E-3,1.72E+0
167,-5.40E-2,1.44E+0
168,0.00E+0,1.68E+0
169,-5.80E-2,1.48E+0
170,-4.00E-3,1.68E+0
171,-5.80E-2,1.40E+0
172,-6.40E-2,1.68E+0
173,-6.00E-3,1.36E+0
174,-7.20E-2,1.36E+0
175,-1.00E-2,1.64E+0
176,-7.00E-2,1.56E+0
177,-1.20E-2,1.28E+0
178,-1.40E-2,1.28E+0
179,-7.80E-2,1.56E+0
180,-1.40E-2,1.48E+0
181,-8.00E-2,1.24E+0
182,-2.20E-2,1.48E+0
183,-8.40E-2,1.20E+0
184,-8.00E-2,1.44E+0
185,-2.20E-2,1.16E+0
186,-2.40E-2,1.40E+0
187,-8.20E-2,1.16E+0
188,-2.60E-2,1.12E+0
189,-8.00E-2,1.40E+0
190,-2.80E-2,1.12E+0
191,-6.60E-2,1.40E+0
192,-5.00E-2,1.20E+0
193,-1.00E-2,1.48E+0
194,-3.20E-2,1.28E+0
195,2.00E-3,1.60E+0
196,-2.20E-2,1.44E+0
197,1.00E-2,1.72E+0
198,1.00E-2,1.56E+0
199,-1.20E-2,1.76E+0
200,1.40E-2,1.80E+0
201,-1.20E-2,1.60E+0
202,1.40E-2,1.64E+0
203,-1.20E-2,1.84E+0
204,1.40E-2,1.64E+0
205,-1.20E-2,1.84E+0
206,1.40E-2,1.64E+0
207,-1.20E-2,1.84E+0
208,-1.20E-2,1.64E+0
209,1.40E-2,1.84E+0
210,-1.20E-2,1.84E+0
211,1.00E-2,1.64E+0
212,-1.40E-2,1.64E+0
213,1.20E-2,1.84E+0
214,-1.20E-2,1.64E+0
215,1.40E-2,1.84E+0
216,-1.20E-2,1.64E+0
217,1.00E-2,1.84E+0
218,1.00E-2,1.64E+0
219,-1.20E-2,1.84E+0
220,-1.20E-2,1.84E+0
221,1.00E-2,1.64E+0
222,1.00E-2,1.84E+0
223,-1.40E-2,1.60E+0
224,-1.60E-2,1.64E+0
225,1.00E-2,1.84E+0
226,-1.60E-2,1.64E+0
227,1.00E-2,1.84E+0
228,-1.40E-2,1.84E+0
229,1.40E-2,1.64E+0
230,1.00E-2,1.64E+0
231,-1.60E-2,1.84E+0
232,1.00E-2,1.64E+0
233,-1.80E-2,1.84E+0
234,-2.00E-2,1.80E+0
235,1.20E-2,1.60E+0
236,8.00E-3,1.84E+0
237,-1.60E-2,1.60E+0
238,-1.80E-2,1.80E+0
239,1.00E-2,1.60E+0
240,1.40E-2,1.60E+0
241,-3.60E-2,1.80E+0
242,6.00E-3,1.80E+0
243,-3.40E-2,1.56E+0
244,-3.80E-2,1.76E+0
245,8.00E-3,1.56E+0
246,-4.80E-2,1.76E+0
247,1.00E-2,1.52E+0
248,2.00E-3,1.52E+0
249,-5.20E-2,1.72E+0
250,0.00E+0,1.72E+0
251,-4.80E-2,1.48E+0
252,-2.00E-3,1.68E+0
253,-5.20E-2,1.48E+0
254,-4.00E-3,1.68E+0
255,-5.80E-2,1.40E+0
256,-6.00E-3,1.64E+0
257,-6.20E-2,1.36E+0
258,-6.60E-2,1.60E+0
259,-8.00E-3,1.32E+0
260,-7.00E-2,1.32E+0
261,-8.00E-3,1.60E+0
262,-1.40E-2,1.56E+0
263,-7.20E-2,1.28E+0
264,-1.40E-2,1.52E+0
265,-6.00E-2,1.24E+0
266,-7.20E-2,1.20E+0
267,-1.40E-2,1.48E+0
268,-3.60E-2,1.32E+0
269,-2.00E-3,1.64E+0
270,-2.80E-2,1.44E+0
271,8.00E-3,1.72E+0
272,-2.20E-2,1.52E+0
273,1.20E-2,1.76E+0
274,1.20E-2,1.80E+0
275,-1.20E-2,1.60E+0
276,1.40E-2,1.64E+0
277,-1.20E-2,1.84E+0
278,1.40E-2,1.64E+0
279,-1.40E-2,1.84E+0
280,1.20E-2,1.64E+0
281,-1.80E-2,1.84E+0
282,1.20E-2,1.84E+0
283,-2.40E-2,1.60E+0
284,-2.80E-2,1.80E+0
285,1.20E-2,1.60E+0
286,1.00E-2,1.80E+0
287,-3.00E-2,1.60E+0
288,6.00E-3,1.60E+0
289,-3.20E-2,1.80E+0
290,1.00E-2,1.80E+0
291,-3.80E-2,1.56E+0
292,8.00E-3,1.76E+0
293,-4.20E-2,1.56E+0
294,4.00E-3,1.76E+0
295,-4.60E-2,1.56E+0
296,0.00E+0,1.72E+0
297,-4.60E-2,1.48E+0
298,0.00E+0,1.72E+0
299,-5.00E-2,1.44E+0
300,0.00E+0,1.68E+0
301,-5.80E-2,1.40E+0
302,-5.80E-2,1.64E+0
303,-4.00E-3,1.40E+0
304,-8.00E-3,1.64E+0
305,-6.80E-2,1.32E+0
306,-8.00E-3,1.60E+0
307,-6.60E-2,1.32E+0
308,-7.20E-2,1.56E+0
309,-1.20E-2,1.28E+0
310,-1.60E-2,1.52E+0
311,-6.60E-2,1.24E+0
312,-5.80E-2,1.24E+0
313,-1.80E-2,1.48E+0
314,-1.80E-2,1.44E+0
315,-7.00E-2,1.20E+0
316,-2.20E-2,1.16E+0
317,-6.60E-2,1.44E+0
318,-7.00E-2,1.12E+0
319,-2.00E-2,1.40E+0
320,-6.80E-2,1.20E+0
321,-6.00E-3,1.48E+0
322,-3.40E-2,1.32E+0
323,4.00E-3,1.64E+0
324,1.00E-2,1.48E+0
325,-1.80E-2,1.72E+0
326,1.60E-2,1.56E+0
327,-1.40E-2,1.80E+0
328,-1.00E-2,1.80E+0
329,1.60E-2,1.60E+0
330,-1.00E-2,1.64E+0
331,1.40E-2,1.84E+0
332,1.60E-2,1.64E+0
333,-1.20E-2,1.84E+0
334,1.40E-2,1.84E+0
335,-1.80E-2,1.64E+0
336,-1.80E-2,1.84E+0
337,1.40E-2,1.64E+0
338,1.20E-2,1.84E+0
339,-2.20E-2,1.64E+0
340,1.20E-2,1.64E+0
341,-2.40E-2,1.84E+0
342,-2.60E-2,1.60E+0
343,1.00E-2,1.80E+0
344,-2.60E-2,1.60E+0
345,1.00E-2,1.80E+0
346,-2.00E-2,1.80E+0
347,8.00E-3,1.56E+0
348,-3.40E-2,1.80E+0
349,1.00E-2,1.56E+0
350,6.00E-3,1.76E+0
351,-3.40E-2,1.52E+0
352,6.00E-3,1.52E+0
353,-3.20E-2,1.76E+0
354,2.00E-3,1.52E+0
355,-4.00E-2,1.76E+0
356,0.00E+0,1.72E+0
357,-4.20E-2,1.44E+0
358,-2.00E-3,1.68E+0
359,-5.20E-2,1.44E+0
360,-6.20E-2,1.64E+0
361,-6.00E-3,1.40E+0
362,-6.40E-2,1.64E+0
363,-6.00E-3,1.36E+0
364,-6.80E-2,1.60E+0
365,-6.00E-3,1.32E+0
366,-7.20E-2,1.28E+0
367,-1.20E-2,1.56E+0
368,-7.40E-2,1.52E+0
369,-1.40E-2,1.28E+0
370,-5.40E-2,1.32E+0
371,-8.00E-3,1.56E+0
372,-4.60E-2,1.36E+0
373,-2.00E-3,1.64E+0
374,6.00E-3,1.48E+0
375,-3.00E-2,1.72E+0
376,8.00E-3,1.56E+0
377,-2.00E-2,1.76E+0
378,-1.20E-2,1.60E+0
379,1.00E-2,1.80E+0
380,-1.20E-2,1.60E+0
381,1.00E-2,1.84E+0
382,-1.20E-2,1.64E+0
383,1.40E-2,1.84E+0
384,1.00E-2,1.60E+0
385,-1.20E-2,1.84E+0
386,1.20E-2,1.84E+0
387,-1.20E-2,1.60E+0
388,-1.40E-2,1.84E+0
389,1.20E-2,1.64E+0
390,-1.40E-2,1.64E+0
391,1.00E-2,1.84E+0
392,-1.20E-2,1.64E+0
393,1.20E-2,1.84E+0
394,1.20E-2,1.84E+0
395,-1.20E-2,1.64E+0
396,1.00E-2,1.64E+0
397,-1.20E-2,1.84E+0
398,1.00E-2,1.84E+0
399,-1.80E-2,1.64E+0
400,-1.20E-2,1.64E+0
401,1.40E-2,1.84E+0
402,1.20E-2,1.64E+0
403,-1.20E-2,1.84E+0
404,-1.20E-2,1.84E+0
405,1.20E-2,1.64E+0
406,1.00E-2,1.84E+0
407,-1.20E-2,1.64E+0
408,-1.20E-2,1.64E+0
409,1.00E-2,1.84E+0
410,-1.40E-2,1.64E+0
411,1.00E-2,1.84E+0
412,1.00E-2,1.84E+0
413,-1.20E-2,1.64E+0
414,1.20E-2,1.84E+0
415,-1.40E-2,1.64E+0
416,1.00E-2,1.84E+0
417,-1.20E-2,1.60E+0
418,1.40E-2,1.64E+0
419,-1.20E-2,1.84E+0
420,1.00E-2,1.84E+0
421,-1.20E-2,1.64E+0
422,1.20E-2,1.64E+0
423,-1.40E-2,1.84E+0
424,-1.20E-2,1.64E+0
425,1.20E-2,1.84E+0
426,1.00E-2,1.64E+0
427,-1.20E-2,1.84E+0
428,-1.20E-2,1.84E+0
429,1.20E-2,1.64E+0
430,-1.20E-2,1.64E+0
431,1.20E-2,1.84E+0
432,-1.60E-2,1.84E+0
433,1.20E-2,1.64E+0
434,1.20E-2,1.84E+0
435,-1.60E-2,1.64E+0
436,1.00E-2,1.64E+0
437,-1.20E-2,1.84E+0
438,-1.20E-2,1.84E+0
439,1.20E-2,1.64E+0
440,-1.20E-2,1.64E+0
441,1.20E-2,1.84E+0
442,1.20E-2,1.84E+0
443,-1.20E-2,1.64E+0
444,1.20E-2,1.64E+0
445,-1.80E-2,1.84E+0
446,1.00E-2,1.64E+0
447,-1.60E-2,1.84E+0
448,-1.80E-2,1.64E+0
449,1.40E-2,1.84E+0
450,-1.60E-2,1.84E+0
451,1.00E-2,1.64E+0
452,-1.20E-2,1.64E+0
453,1.40E-2,1.84E+0
454,-1.20E-2,1.64E+0
455,1.40E-2,1.84E+0
456,-1.80E-2,1.84E+0
457,1.20E-2,1.64E+0
458,1.40E-2,1.84E+0
459,-1.60E-2,1.64E+0
460,1.20E-2,1.64E+0
461,-1.20E-2,1.84E+0
462,-1.60E-2,1.84E+0
463,1.40E-2,1.64E+0
464,-1.40E-2,1.64E+0
465,1.00E-2,1.84E+0
466,1.40E-2,1.84E+0
467,-1.60E-2,1.64E+0
468,-1.40E-2,1.84E+0
469,1.20E-2,1.64E+0
470,-1.40E-2,1.64E+0
471,1.20E-2,1.84E+0
472,-1.20E-2,1.64E+0
473,1.40E-2,1.84E+0
474,-1.20E-2,1.64E+0
475,1.40E-2,1.84E+0
476,1.40E-2,1.64E+0
477,-1.80E-2,1.84E+0
478,-1.60E-2,1.84E+0
479,1.20E-2,1.64E+0
480,-2.40E-2,1.84E+0
481,1.40E-2,1.60E+0
482,-2.60E-2,1.80E+0
483,1.20E-2,1.60E+0
484,-2.60E-2,1.60E+0
485,1.20E-2,1.80E+0
486,1.00E-2,1.60E+0
487,-3.00E-2,1.80E+0
488,-3.40E-2,1.80E+0
489,1.40E-2,1.60E+0
490,6.00E-3,1.76E+0
491,-3.80E-2,1.56E+0
492,6.00E-3,1.56E+0
493,-4.40E-2,1.76E+0
494,4.00E-3,1.76E+0
495,-4.60E-2,1.52E+0
496,4.00E-3,1.72E+0
497,-5.20E-2,1.48E+0
498,2.00E-3,1.72E+0
499,-5.80E-2,1.44E+0
500,-2.00E-3,1.68E+0
501,-6.40E-2,1.44E+0
502,-6.00E-3,1.40E+0
503,-5.80E-2,1.68E+0
504,-8.00E-3,1.60E+0
505,-6.40E-2,1.36E+0
506,-1.00E-2,1.56E+0
507,-6.20E-2,1.32E+0
508,-5.00E-2,1.60E+0
509,-1.60E-2,1.28E+0
510,-1.60E-2,1.52E+0
511,-6.60E-2,1.24E+0
512,-1.60E-2,1.48E+0
513,-6.20E-2,1.20E+0
514,-2.20E-2,1.48E+0
515,-7.00E-2,1.16E+0
516,-2.20E-2,1.16E+0
517,-7.20E-2,1.40E+0
518,-1.80E-2,1.16E+0
519,-7.80E-2,1.40E+0
520,-7.80E-2,1.16E+0
521,-1.00E-2,1.48E+0
522,-3.40E-2,1.32E+0
523,2.00E-3,1.64E+0
524,-2.60E-2,1.48E+0
525,8.00E-3,1.72E+0
526,-2.60E-2,1.52E+0
527,1.60E-2,1.80E+0
528,-1.80E-2,1.60E+0
529,1.20E-2,1.80E+0
530,1.00E-2,1.60E+0
531,-1.40E-2,1.80E+0
532,1.20E-2,1.60E+0
533,-1.20E-2,1.84E+0
534,-1.20E-2,1.64E+0
535,1.40E-2,1.84E+0
536,-1.20E-2,1.84E+0
537,1.20E-2,1.64E+0
538,-1.20E-2,1.84E+0
539,1.00E-2,1.64E+0
540,1.20E-2,1.64E+0
541,-1.20E-2,1.84E+0
542,1.00E-2,1.64E+0
543,-1.20E-2,1.84E+0
544,1.20E-2,1.84E+0
545,-1.20E-2,1.64E+0
546,-1.20E-2,1.64E+0
547,1.00E-2,1.84E+0
548,1.00E-2,1.64E+0
549,-1.40E-2,1.84E+0
550,-1.20E-2,1.64E+0
551,1.00E-2,1.84E+0
552,-1.20E-2,1.84E+0
553,1.20E-2,1.64E+0
554,-1.20E-2,1.84E+0
555,1.00E-2,1.64E+0
556,-1.40E-2,1.64E+0
557,1.40E-2,1.84E+0
558,-1.40E-2,1.64E+0
559,1.40E-2,1.84E+0
560,-1.80E-2,1.84E+0
561,1.20E-2,1.64E+0
562,1.40E-2,1.84E+0
563,-2.20E-2,1.60E+0
564,1.20E-2,1.84E+0
565,-3.20E-2,1.60E+0
566,1.00E-2,1.80E+0
567,-2.60E-2,1.60E+0
568,1.00E-2,1.80E+0
569,-3.40E-2,1.60E+0
570,-3.60E-2,1.80E+0
571,1.00E-2,1.56E+0
572,6.00E-3,1.76E+0
573,-3.80E-2,1.56E+0
574,6.00E-3,1.76E+0
575,-4.60E-2,1.52E+0
576,8.00E-3,1.76E+0
577,-5.20E-2,1.52E+0
578,2.00E-3,1.72E+0
579,-4.60E-2,1.48E+0
580,0.00E+0,1.48E+0
581,-5.20E-2,1.72E+0
582,-5.80E-2,1.68E+0
583,-2.00E-3,1.44E+0
584,-6.00E-3,1.64E+0
585,-5.00E-2,1.36E+0
586,-5.00E-2,1.64E+0
587,-8.00E-3,1.36E+0
588,-8.00E-3,1.60E+0
589,-5.20E-2,1.32E+0
590,-1.20E-2,1.60E+0
591,-6.40E-2,1.32E+0
592,-5.80E-2,1.52E+0
593,-1.20E-2,1.24E+0
594,-1.60E-2,1.48E+0
595,-6.00E-2,1.20E+0
596,-1.80E-2,1.48E+0
597,-6.20E-2,1.20E+0
598,-6.20E-2,1.20E+0
599,-1.40E-2,1.48E+0
600,-3.40E-2,1.32E+0
601,0.00E+0,1.64E+0
602,-1.80E-2,1.48E+0
603,8.00E-3,1.72E+0
604,-1.20E-2,1.52E+0
605,1.20E-2,1.76E+0
606,-1.00E-2,1.80E+0
607,1.20E-2,1.60E+0
608,-1.00E-2,1.84E+0
609,1.40E-2,1.60E+0
610,-1.00E-2,1.64E+0
611,1.40E-2,1.84E+0
612,-1.40E-2,1.64E+0
613,1.40E-2,1.84E+0
614,1.40E-2,1.84E+0
615,-1.80E-2,1.64E+0
616,1.40E-2,1.84E+0
617,-2.40E-2,1.60E+0
618,1.40E-2,1.84E+0
619,-3.00E-2,1.60E+0
620,-2.40E-2,1.80E+0
621,1.40E-2,1.60E+0
622,-2.80E-2,1.60E+0
623,1.20E-2,1.80E+0
624,-2.80E-2,1.60E+0
625,8.00E-3,1.80E+0
626,-2.80E-2,1.76E+0
627,6.00E-3,1.56E+0
628,6.00E-3,1.76E+0
629,-3.80E-2,1.56E+0
630,4.00E-3,1.76E+0
631,-3.20E-2,1.52E+0
632,6.00E-3,1.72E+0
633,-4.60E-2,1.52E+0
634,0.00E+0,1.48E+0
635,-5.00E-2,1.72E+0
636,-5.20E-2,1.68E+0
637,0.00E+0,1.44E+0
638,-4.00E-3,1.64E+0
639,-6.40E-2,1.36E+0
640,-8.00E-3,1.36E+0
641,-6.40E-2,1.64E+0
642,-1.00E-2,1.28E+0
643,-7.00E-2,1.60E+0
644,-7.60E-2,1.52E+0
645,-1.20E-2,1.28E+0
646,-7.80E-2,1.52E+0
647,-1.80E-2,1.24E+0
648,-1.60E-2,1.48E+0
649,-8.00E-2,1.20E+0
650,-1.60E-2,1.44E+0
651,-8.20E-2,1.16E+0
652,-2.60E-2,1.16E+0
653,-8.20E-2,1.40E+0
654,-2.40E-2,1.12E+0
655,-7.80E-2,1.40E+0
656,-8.40E-2,1.12E+0
657,-1.60E-2,1.44E+0
658,-4.40E-2,1.28E+0
659,0.00E+0,1.60E+0
660,-2.00E-2,1.44E+0
661,8.00E-3,1.68E+0
662,-1.20E-2,1.52E+0
663,1.40E-2,1.80E+0
664,-1.20E-2,1.60E+0
665,1.40E-2,1.80E+0
666,1.40E-2,1.64E+0
667,-1.20E-2,1.84E+0
668,1.40E-2,1.64E+0
669,-1.00E-2,1.84E+0
670,1.00E-2,1.64E+0
671,-1.20E-2,1.84E+0
672,1.00E-2,1.84E+0
673,-1.20E-2,1.64E+0
674,1.40E-2,1.84E+0
675,-1.40E-2,1.64E+0
676,-1.80E-2,1.64E+0
677,1.60E-2,1.84E+0
678,1.00E-2,1.60E+0
679,-2.20E-2,1.84E+0
680,-2.80E-2,1.80E+0
681,1.20E-2,1.64E+0
682,-2.80E-2,1.80E+0
683,1.00E-2,1.60E+0
684,-3.40E-2,1.80E+0
685,8.00E-3,1.60E+0
686,8.00E-3,1.56E+0
687,-3.60E-2,1.80E+0
688,1.00E-2,1.80E+0
689,-4.20E-2,1.52E+0
690,6.00E-3,1.76E+0
691,-4.20E-2,1.52E+0
692,0.00E+0,1.76E+0
693,-4.20E-2,1.52E+0
694,-4.80E-2,1.72E+0
695,2.00E-3,1.48E+0
696,-2.00E-3,1.48E+0
697,-5.60E-2,1.72E+0
698,-6.20E-2,1.68E+0
699,-2.00E-3,1.44E+0
700,-6.20E-2,1.68E+0
701,-6.00E-3,1.40E+0
702,-8.00E-3,1.64E+0
703,-7.00E-2,1.32E+0
704,-1.20E-2,1.32E+0
705,-5.00E-2,1.60E+0
706,-1.60E-2,1.56E+0
707,-6.60E-2,1.28E+0
708,-8.00E-3,1.36E+0
709,-3.60E-2,1.60E+0
710,-2.60E-2,1.44E+0
711,6.00E-3,1.68E+0
712,-1.60E-2,1.52E+0
713,1.00E-2,1.76E+0
714,1.00E-2,1.80E+0
715,-1.20E-2,1.56E+0
716,1.40E-2,1.84E+0
717,-1.20E-2,1.60E+0
718,1.20E-2,1.84E+0
719,-1.20E-2,1.64E+0
720,1.20E-2,1.84E+0
721,-1.20E-2,1.64E+0
722,1.00E-2,1.64E+0
723,-1.20E-2,1.84E+0
724,1.00E-2,1.64E+0
725,-1.20E-2,1.84E+0
726,1.00E-2,1.64E+0
727,-1.20E-2,1.84E+0
728,-1.20E-2,1.84E+0
729,1.00E-2,1.64E+0
730,-1.40E-2,1.84E+0
731,1.00E-2,1.64E+0
732,-1.20E-2,1.64E+0
733,1.20E-2,1.84E+0
734,-1.20E-2,1.84E+0
735,1.20E-2,1.64E+0
736,-1.20E-2,1.64E+0
737,1.20E-2,1.84E+0
738,1.00E-2,1.84E+0
739,-1.60E-2,1.64E+0
740,1.00E-2,1.84E+0
741,-1.40E-2,1.64E+0
742,1.20E-2,1.84E+0
743,-1.20E-2,1.64E+0
744,1.00E-2,1.64E+0
745,-1.20E-2,1.84E+0
746,-1.20E-2,1.84E+0
747,1.00E-2,1.64E+0
748,-1.20E-2,1.84E+0
749,1.20E-2,1.60E+0
750,1.00E-2,1.84E+0
751,-1.20E-2,1.64E+0
752,-1.20E-2,1.84E+0
753,1.00E-2,1.64E+0
754,1.00E-2,1.84E+0
755,-1.60E-2,1.64E+0
756,1.00E-2,1.84E+0
757,-1.20E-2,1.64E+0
758,-1.20E-2,1.64E+0
759,1.20E-2,1.84E+0
760,1.00E-2,1.64E+0
761,-1.40E-2,1.84E+0
762,-1.20E-2,1.64E+0
763,1.20E-2,1.84E+0
764,-1.40E-2,1.64E+0
765,1.20E-2,1.84E+0
766,1.00E-2,1.84E+0
767,-1.20E-2,1.64E+0
768,-1.20E-2,1.64E+0
769,1.20E-2,1.84E+0
770,1.00E-2,1.64E+0
771,-1.40E-2,1.84E+0
772,1.40E-2,1.84E+0
773,-1.40E-2,1.64E+0
774,1.20E-2,1.64E+0
775,-1.60E-2,1.84E+0
776,1.20E-2,1.64E+0
777,-1.60E-2,1.84E+0
778,1.20E-2,1.64E+0
779,-1.40E-2,1.84E+0
780,1.40E-2,1.64E+0
781,-1.40E-2,1.84E+0
782,1.00E-2,1.84E+0
783,-1.20E-2,1.64E+0
784,1.40E-2,1.64E+0
785,-1.60E-2,1.84E+0
786,-1.20E-2,1.84E+0
787,1.40E-2,1.64E+0
788,-1.60E-2,1.64E+0
789,1.40E-2,1.84E+0
790,-1.80E-2,1.64E+0
791,1.00E-2,1.84E+0
792,-1.20E-2,1.64E+0
793,1.40E-2,1.84E+0
794,-1.20E-2,1.84E+0
795,1.80E-2,1.64E+0
796,1.20E-2,1.84E+0
797,-1.40E-2,1.64E+0
798,1.20E-2,1.84E+0
799,-1.40E-2,1.64E+0
800,1.40E-2,1.84E+0
801,-1.40E-2,1.64E+0
802,-1.40E-2,1.84E+0
803,1.60E-2,1.64E+0
804,-1.40E-2,1.84E+0
805,1.40E-2,1.64E+0
806,1.00E-2,1.84E+0
807,-1.80E-2,1.64E+0
808,1.40E-2,1.84E+0
809,-1.80E-2,1.64E+0
810,1.40E-2,1.84E+0
811,-1.40E-2,1.64E+0
812,1.40E-2,1.84E+0
813,-2.60E-2,1.60E+0
814,-1.80E-2,1.64E+0
815,1.60E-2,1.84E+0
816,1.40E-2,1.64E+0
817,-2.20E-2,1.84E+0
818,1.20E-2,1.80E+0
819,-2.40E-2,1.60E+0
820,1.00E-2,1.80E+0
821,-3.20E-2,1.60E+0
822,-2.80E-2,1.80E+0
823,1.20E-2,1.56E+0
824,6.00E-3,1.80E+0
825,-2.20E-2,1.56E+0
826,-3.20E-2,1.56E+0
827,6.00E-3,1.76E+0
828,-3.20E-2,1.56E+0
829,6.00E-3,1.76E+0
830,0.00E+0,1.76E+0
831,-3.40E-2,1.52E+0
832,0.00E+0,1.72E+0
833,-4.00E-2,1.48E+0
834,-4.20E-2,1.72E+0
835,-2.00E-3,1.44E+0
836,-6.00E-3,1.68E+0
837,-4.40E-2,1.40E+0
838,-6.00E-3,1.64E+0
839,-6.60E-2,1.36E+0
840,-6.00E-3,1.64E+0
841,-7.40E-2,1.32E+0
842,-1.20E-2,1.60E+0
843,-7.00E-2,1.32E+0
844,-7.80E-2,1.52E+0
845,-1.40E-2,1.24E+0
846,-8.00E-2,1.48E+0
847,-1.60E-2,1.20E+0
848,-8.20E-2,1.48E+0
849,-2.20E-2,1.20E+0
850,-2.00E-2,1.44E+0
851,-8.80E-2,1.16E+0
852,-7.20E-2,1.20E+0
853,-1.40E-2,1.48E+0
854,-1.20E-2,1.28E+0
855,-5.80E-2,1.52E+0
856,-5.60E-2,1.32E+0
857,-2.00E-3,1.60E+0
858,-5.20E-2,1.40E+0
859,2.00E-3,1.60E+0
860,-3.40E-2,1.44E+0
861,4.00E-3,1.72E+0
862,-1.60E-2,1.52E+0
863,1.00E-2,1.76E+0
864,-1.40E-2,1.56E+0
865,1.20E-2,1.80E+0
866,-1.00E-2,1.60E+0
867,1.40E-2,1.84E+0
868,1.00E-2,1.84E+0
869,-1.20E-2,1.64E+0
870,1.40E-2,1.64E+0
871,-1.20E-2,1.84E+0
872,1.40E-2,1.84E+0
873,-1.20E-2,1.64E+0
874,1.00E-2,1.64E+0
875,-1.20E-2,1.84E+0
876,1.00E-2,1.84E+0
877,-1.20E-2,1.64E+0
878,-1.20E-2,1.84E+0
879,1.20E-2,1.64E+0
880,1.20E-2,1.84E+0
881,-1.40E-2,1.64E+0
882,1.00E-2,1.64E+0
883,-1.40E-2,1.84E+0
884,-1.20E-2,1.64E+0
885,1.00E-2,1.84E+0
886,1.00E-2,1.84E+0
887,-1.60E-2,1.64E+0
888,1.00E-2,1.64E+0
889,-1.40E-2,1.84E+0
890,1.00E-2,1.64E+0
891,-1.80E-2,1.84E+0
892,-1.60E-2,1.64E+0
893,1.20E-2,1.84E+0
894,-2.00E-2,1.84E+0
895,1.40E-2,1.64E+0
896,-2.60E-2,1.84E+0
897,1.20E-2,1.60E+0
898,1.00E-2,1.60E+0
899,-2.40E-2,1.84E+0
900,8.00E-3,1.80E+0
901,-3.20E-2,1.60E+0
902,1.00E-2,1.60E+0
903,-2.40E-2,1.80E+0
904,6.00E-3,1.80E+0
905,-4.00E-2,1.56E+0
906,8.00E-3,1.76E+0
907,-2.60E-2,1.56E+0
908,-4.40E-2,1.76E+0
909,6.00E-3,1.52E+0
910,2.00E-3,1.72E+0
911,-5.40E-2,1.52E+0
912,-2.00E-3,1.72E+0
913,-3.60E-2,1.48E+0
914,0.00E+0,1.68E+0
915,-5.60E-2,1.44E+0
916,-6.00E-3,1.68E+0
917,-5.00E-2,1.40E+0
918,-6.00E-3,1.36E+0
919,-6.80E-2,1.64E+0
920,-1.00E-2,1.60E+0
921,-7.00E-2,1.32E+0
922,-6.60E-2,1.60E+0
923,-1.00E-2,1.28E+0
924,-1.40E-2,1.28E+0
925,-7.40E-2,1.56E+0
926,-7.60E-2,1.52E+0
927,-1.60E-2,1.24E+0
928,-8.00E-2,1.48E+0
929,-1.60E-2,1.20E+0
930,-7.40E-2,1.20E+0
931,-1.40E-2,1.48E+0
932,-4.00E-2,1.28E+0
933,-2.00E-3,1.60E+0
934,-1.80E-2,1.40E+0
935,8.00E-3,1.68E+0
936,-1.20E-2,1.52E+0
937,1.40E-2,1.76E+0
938,1.40E-2,1.60E+0
939,-1.00E-2,1.80E+0
940,1.60E-2,1.64E+0
941,-1.00E-2,1.84E+0
942,-1.20E-2,1.84E+0
943,1.40E-2,1.64E+0
944,-1.20E-2,1.64E+0
945,1.40E-2,1.84E+0
946,-1.20E-2,1.64E+0
947,1.40E-2,1.84E+0
948,-1.60E-2,1.84E+0
949,1.40E-2,1.64E+0
950,-1.20E-2,1.84E+0
951,1.20E-2,1.64E+0
952,-1.60E-2,1.64E+0
953,1.00E-2,1.84E+0
954,-1.40E-2,1.84E+0
955,1.20E-2,1.64E+0
956,1.00E-2,1.84E+0
957,-2.20E-2,1.60E+0
958,1.40E-2,1.84E+0
959,-2.80E-2,1.60E+0
960,1.00E-2,1.60E+0
961,-3.20E-2,1.84E+0
962,-2.80E-2,1.80E+0
963,1.20E-2,1.60E+0
964,1.20E-2,1.56E+0
965,-3.60E-2,1.80E+0
966,6.00E-3,1.76E+0
967,-4.20E-2,1.56E+0
968,6.00E-3,1.76E+0
969,-4.80E-2,1.56E+0
970,-4.40E-2,1.52E+0
971,6.00E-3,1.76E+0
